(2至4层免费分号周7至周310am至6pm逗号周4至周610am至8pm
08:00至21:00
08:30至18:00
08:30至18:00mon至sat
09:00至12:30逗号14:30至17:30
09:00至16:00
09:00至17:00
09:00至17:00may至sep逗号10:00至14:00oct至apr
09:00至18:00
09:00至19:00
09:30至17:30逗号12月24至26日逗号1月1日关闭
10.30am至1pm逗号4.30pm至7.30pmmon至sat
10.30am至4.30pmtue至sunlatejul至earlysep
10.45am至1.30pm逗号4至8pmmon至sat逗号4至8pmsun逗号to7pmnov至mar
10:00至13:0014:00至17:00
10:00至13:00逗号14:00至17:00mon至sat
10:00至13:00逗号14:00至18:00tue至sun周2至周7冒号10:00至13:00和14:00至18:00
10:00至13:00逗号16:00至20:00
10:00至13:30逗号15:00至18:30
10:00至14:00逗号16:00至20:00
10:00至16:00
10:00至16:00
10:00至16:00(周5逗号周6关闭逗号周7冒号11:00至16:45)
10:00至16:30
10:00至16:45
10:00至17:00
10:00至17:00
10:00至17:00
10:00至17:00
10:00至17:00
10:00至17:00
10:00至17:00
10:00至17:00
10:00至17:00
10:00至17:00
10:00至17:00
10:00至17:00
10:00至17:00
10:00至17:00
10:00至17:00
10:00至17:00
10:00至17:00
10:00至17:00
10:00至17:00
10:00至17:00
10:00至17:00
10:00至17:00
10:00至17:00
10:00至17:00
10:00至17:00
10:00至17:00(周1至四)逗号12:00至17:00(周5至日)
10:00至17:00(周3冒号12:00开馆)
10:00至17:00(周7冒号11:00至16:00)
10:00至17:00(画廊周1闭馆)
10:00至17:002012.6:25至9:21期间因奥运会原因闭馆
10:00至17:00tue至sun
10:00至17:00分号有演出的日子10:00至13:00逗号提前半个小时停止进入分号1月1日逗号5月1日及一些特殊游行的日子关闭
10:00至17:00可能随天气等条件有所变化
10:00至17:00周1休息
10:00至17:00周4至21:00
10:00至17:00逗号12月5日逗号24日逗号31日10:00至16:00逗号1月1日逗号4月30日逗号12月25日关闭
10:00至17:00逗号1月1日逗号4月30日逗号12月25日关闭
10:00至17:00逗号8月1日至8月30日延长至21:00逗号11月及圣诞节休息
10:00至17:00逗号周1闭馆
10:00至17:00逗号周2休馆
10:00至17:00逗号周4冒号10:00至19:00
10:00至17:30
10:00至17:30逗号7月至8月会延长至19:30
10:00至17:45逗号12月25逗号26日闭馆
10:00至17:50
10:00至17:50
10:00至18:00
10:00至18:00
10:00至18:00
10:00至18:00
10:00至18:00
10:00至18:00
10:00至18:00
10:00至18:00
10:00至18:00
10:00至18:00
10:00至18:00
10:00至18:00(周7和节假日关闭)
10:00至18:00may至sep
10:00至18:00周1闭馆
10:00至18:00周2至周7
10:00至18:00周2至周7周1闭馆
10:00至18:00周2闭馆1月9日逗号2月20日逗号12月25日闭馆休息
10:00至18:00周4逗号周5延长至21:00
10:00至18:00周7及节假日14:00前免费逗号闭馆前半小时停止入内逗号闭馆时间:周1逗号元旦逗号劳动节逗号复活节及圣诞节
10:00至18:00或20:00逗号周7及节假日不营业
10:00至18:00逗号周1及节假日闭馆
10:00至18:00逗号周1闭馆
10:00至18:00逗号周1闭馆
10:00至18:00逗号周1闭馆
10:00至18:00逗号周1闭馆分号宝马世界每日开放
10:00至18:00逗号周2至周7
10:00至18:30
10:00至19:00
10:00至19:00
10:00至19:00(周1休馆)
10:00至19:00(周2及公众假期除外)分号周4冒号10:00至21:00
10:00至19:00周2/12月24逗号25日冒号10:00至18:00
10:00至19:00逗号周7及节假日18:00闭馆逗号有演出的时候会一直开放至演出结束逗号售票点在演出开始后30分钟关闭
10:00至20:00
10:00至20:00(5/21至9/20)逗号10:00至17:00(9/21至5/20)
10:00至20:00(主要店铺营业时间)
10:00至20:00周2闭馆
10:00至21:00逗号周7休息
10:00至23:00
10:00至24:00
10:30am至4pm
10:30至17:30
10am至1.15pm逗号2至6pm
10am至11pm
10am至1pm逗号2至6pmtue至sun
10am至2pmmon至fri
10am至2pmsun10am至5pmtue至sun
10am至3pmmon逗号tue逗号fri逗号11am至6pmwed逗号thu逗号11am至5pmsun
10am至4pm逗号closed24dec至3jan
10am至5pm
10am至5pm
10am至5pmtue至fri逗号11am至5pmsat逗号sun
10am至5pmtue至fri逗号noon至5pmsun
10am至5pmtue至sun
10am至6pmtue至sun
10am至6pmtue至sun
10am至7pmmon至sat逗号10am至8pmwed逗号10am至5pmsunjun至sep逗号10am至5pmoct至may
10月15日次年3月14日逗号日票(周1至周7)上午票8:30至14:00逗号下午票14:00至18:00(售票处8:00至17:00)逗号夜票(周5及周6)20:00至21:30逗号售票处19:00至20:30逗号3月15日至10月14日逗号日票(周1至周7)上午票8:30至14:00逗号下午票14:00至20:00逗号售票处8:00至20:00分号夜票(周2至周6)22:00至23:30逗号售票处21:00至22:30
10月1日至4月30日冒号周1至周5冒号12:00至18:00分号周6至周7及节假日冒号11:00至18:00分号5月1日至9月30日冒号周1至周5冒号11:00至22:00分号周6至周7及节假日冒号10:00至22:00
10月1日至翌年3月31日逗号周2至周7冒号10:00至17:00逗号4月1日至9月30日10:00至18:00(在4月27逗号28日分号5月4逗号5逗号11逗号12逗号17逗号18日延长开放时间至20:00)
10月至3月10:00至18:00逗号4月至9月10:00至20:00逗号12月25逗号26日逗号1月6日10:00至14:00
10月至3月冒号10am至5pm分号11月至2月冒号10am至4pm
10月至3月周1至周5冒号07:30至16:00逗号周6至周7冒号09:30至16:00逗号4月至9月周1至周5冒号07:30至19:00逗号周6至周7冒号09:30至19:00银行假日开放时间同周6至周7
10月至3月周2至周5冒号12:00至15:00逗号周6日10:00至15:00逗号4月至9月11:00至16:00
10月至3月逗号9:00至18:00  4月至9月逗号9:00至20:00  12月25逗号26日以及1月1至6日逗号9:00至14:00
10月至6月10:00至18:00逗号7月至9月10:00至19:00售票处于关门前30分钟停止售票
10月至6月冒号周2至周6逗号10:00至19:00分号7月至9月冒号周2逗号三逗号五逗号六日10:00至20:00分号周4冒号10:00至21:30分号周7及节假日10:00至14:30
10月至次年3月7:00至18:15逗号4月至9月7:00至19:15
10月至次年6月周2至周7冒号08:30至19:30逗号周1冒号13:45至19:30分号7月至9月(歌剧表演季)8:00至15:30
10点至18点逗号周2和某些节假日关门
11:00至15:00
11:00至16:00
11:00至17:00
11:00至17:00
11:00至17:00逗号1月1日11:00至12:00犹太新年及新年第二天(2012年是9月17日和9月18日)关闭赎罪日(2012年是9月26日)关闭12月24日11:00至16:00逗号12月31日11:00至16:00
11:00至17:00逗号9月15日至5月14日周1闭馆
11:00至17:30
11:00至18:00
11:00至18:00(周2至周5逗号周7逗号周6冒号13:00开馆)
11:00至18:00(周2逗号周3逗号周5至周7)11:00至20:00(周4)
11:00至18:00tue至sun
11:00至18:00tue至sun
11:00至19:00逗号周2至周7
11:00至19:30
11:00至20:00逗号最后入场19:15
11:00至21:00分号周2闭馆
11:00至22:00
11am至4pmsun至thuaug至may
11am至5pmmid至sep至mid至may逗号11am至7pmwedjun至aug逗号9am至3pmmon至fri逗号11am至5pmsat逗号sunlatemay逗号earlysep
11am至5pmtue逗号wed逗号fri逗号11am至7pmthu逗号noon至5pmsat逗号sun
11am至6pmmid至june至mid至aug逗号11am至5pmtue至sat逗号11am至6pmsunrest至of至year
11月1日至2月28日10:00至18:00分号3月1日至10月31日10:00至17:00(教堂免费开放)
11月1日至3月31日10:00至16:00分号4月1日至10月31日10:00至18:00(教堂免费开放)
11月23日至12月24日周1至周4冒号10:00至18:00周5至周7逗号12月8日冒号10:00至20:00逗号12月24日冒号10:00至18:30
11月31日至12月31日逗号周1至周4冒号10:00至20:00分号周5逗号周6冒号10:00至21:00分号12月24日冒号10:00至18:00分号12月25日冒号14:00至18:00分号26日至30日冒号10:00至19:00分号31日冒号10:00至18:00
11月至2月10:00至16:00逗号3月至5月10:00至17:00逗号6月至8月9:00至18:00逗号9月至10月10:00至17:00
11月至2月周1至周5冒号08:30至16:00逗号周6冒号10:30至16:00逗号周7冒号08:30至20:00逗号2月至11月周1至周5冒号08:30至17:00逗号周6冒号10:30至16:00逗号周7冒号08:30至20:00
11月至2月周1至周5冒号10:00至15:00逗号周6至周7冒号10:00至16:00逗号3月至4月逗号10月周1至周7冒号10:00至16:00逗号5月逗号9月周1至周7冒号10:00至17:00逗号6月至8月周1至周7冒号09:00至18:00
11月至2月每天10:00至18:00分号5至8月为10:00至21:00逗号其它时间为10:00至19:00
11月至2月逗号10:00至13:00逗号13:30至17:00逗号节假日12:30至17:00分号3月至10月逗号周1至周6冒号08:30至18:00逗号节假日12:30至18:00
11月至2月逗号10:00至13:00逗号13:30至17:00逗号节假日13:00至17:00分号3月至10月逗号10:00至18:00逗号节假日13:00至18:00
11月至2月逗号10:00至13:00逗号13:30至17:00逗号节假日13:00至17:00分号3月至10月逗号9:00至18:00逗号节假日13:00至18:00
11月至3月10:00至16:30逗号4月至10月10:00至17:00
11月至3月11:00至16:00逗号3月至10月9:00至18:00其中5月14日至9月16日9:00至20:00
11月至4月6:00至19:30分号5月至10月6:00至21:00塔楼的开放时间:1月至2月9:00至16:00分号3月至4月9:00至17:00分号5月至9月9:00至18:00分号10月9:00至17:00分号11月至12月9:00至16:00
11月至次年2月9:00至18:00逗号3月至6月9:00至19:00逗号7月至9月9:00至20:00逗号圣诞节当日关闭
11月至次年3月9:00至13:00逗号14:00至18:00分号4月至10月9:00至19:00分号圣诞节和元旦关闭
11月逗号12月逗号1月逗号2月逗号周2至周7冒号08:15至16:30逗号3月逗号周2至周7冒号08:15至17:30逗号4月逗号5月逗号9月逗号10月逗号周2至周7冒号08:15至18:30逗号6月逗号7月逗号8月逗号周2至周7冒号08:15至19:30(周1闭馆并且1月1日元旦逗号5月一日和圣诞节关闭)
12.24平安夜
12月12至30日关闭12月31日至1月8日12:00至15:30逗号1月14日至3月29日周6日12:00至15:30逗号3月30日至4月30周5六日11:00至15:30逗号5月至8月10:00至16:30逗号9月11:00至15:30逗号10月周5六日11:00至15:30逗号11月至12月9日周6日12:00至15:30
13:30至18:00
14:00至16:30
14:00至17:00
14:00至19:00
1:30至4:30pm
1月至3月10:00至20:30逗号4月至6月10:00至21:00逗号7月至8月10:00至21:30逗号9月至12月10:00至20:30
1月至3月冒号周1和周5冒号09:30至19:30(最后入场时间为18:00)逗号周6逗号日逗号以及节假日9:30至20:30分号4月至7月冒号周1至周5冒号09:00至19:30(最后入场时间为18:00)逗号周6逗号日逗号以及节假日8:45至20:30(最后入场时间为19:00)分号8月冒号每天8:30至22:30(最后入场时间为20:30)9月逗号10月冒号周1至周5冒号09:00至20:00(最后入场时间为18:00)逗号周6逗号日逗号以及节假日8:45至21:00(最后入场时间为19:00)分号11月逗号12月冒号周1至周5冒号09:30至20:00(最后入场时间为18:00)逗号周6逗号日逗号以及节假日9:30至21:00(最后入场时间为19:00)分号12月25逗号26日9:30至21:00(最后入场时间为19:00)分号注意检查时间可能会变更逗号请以官网信息为准
1月至3月周1冒号10:00至13:00逗号周2至周7冒号10:00至17:00分号4月至12月周1冒号10:00至13:00逗号周2逗号周3和周5至周7冒号10:00至18:00逗号周4冒号10:00至22:00
1月至4月逗号10月至12月9:30至17:00分号5月至9月9:00至19:00分号圣诞节周7以及复活节期间9:00至18:00
1月至5月周2至周7冒号10:00至17:00逗号6月10:00至17:00逗号7月10:00至18:00逗号8月10:00至18:00逗号8月仅1日至14日开放
1月逗号2月逗号11月和12月9:00至16:30逗号3月和10月9:00至17:00逗号4月逗号5月逗号6月逗号7月和8月8:00至19:30逗号1月1日和12月25日关闭
1月逗号2月逗号11月和12月9:00至16:30逗号3月和10月9:00至17:00逗号4月逗号5月逗号6月逗号7月和8月8:00至19:30逗号1月1日和12月25日关闭
1至3逗号11至12月周4至周7开放最后一批参观时间为16:30周4和周7参观从14:30开始逗号周5参观从10:30开始逗号周6参观从11:30开始4至6逗号9至10月每天开放最后一批参观时间为17:30周4和周7参观从14:30开始逗号周5参观从10:30开始逗号周6参观从11:30开始7至8月每天开放最后一批参观时间为17:30周1至周3逗号周7参观从14:30开始逗号周4至周5参观从10:30开始逗号周6参观从11:30开始
1至5pmtue至sat
2012年3月24日至10月21日逗号每天11:00至19:00
2012年4月23日至5月8日5月至3月周3至周7冒号10:00至17:00
2013.5.1:10:00至18:002013.5.2至2013.9.1:9:00至18:00逗号周5冒号09:00至22:002013.12.27至2014.1.5:9:00至18:00逗号周5冒号09:00至22:00从2013.1.6开始:9:00至17:00逗号周5冒号09:00至22:00
2013内部整修不开放逗号可从外部观看
2013年5月6日至9月15日9:00至23:15(附灯光)分号9月16日至11月3日周1至周4冒号10:00至18:00逗号周5至周7冒号10:00至22:30(附灯光)分号11月4日至2014年3月2日10:00至16:00
2月至3月9:15至16:45逗号4月至5月9:15至17:45逗号6月至9月9:15至18:45逗号10月9:15至17:45逗号11至12月9:15至16:45
3月10日至10月10am至6pm11月至3月10日11am至4pm
3月15日至10月15日的周2至周6为10:00至19:00分号周7和公共节假日为10:00至15:00分号10月16日至3月14日的周2至周6为10:00至18:00分号周7及公共节假日为10:00至15:00
3月15日至10月15日的周2至周6为10:00至19:00逗号周7和公共节假日为10:00至15:00分号10月16日至3月14日的周2至周6为10:00至18:00逗号周7及公共节假日为10:00至15:00
3月15日至10月31日10:00至24:00
3月15日至6月30日10:00至16:30分号7月1日至9月30日10:00至18:30分号10月1日至11月15日10:00至16:30
3月1日至10月31日冒号周1至周5逗号10:00至17:00周6冒号10:00至15:00逗号11月1日至11月30日冒号周1至周5逗号10:00至19:00周6冒号10:00至15:00逗号12月1日至12月23日冒号周1至周5冒号10:00至20:00周6冒号10:00至16:00逗号12月24日冒号9:00至12:00逗号12月28日至31日冒号10:00至15:00周7冒号6月1日至12月23日冒号12:00至16:00
3月23日至10月31日10:00至17:30(冬季闭馆)
3月23日至10月7日周2至周7冒号09:00至18:00(最晚入园时间17:00)逗号周1不开放逗号7月逗号8月无休息日分号10月8日至11月3日9:00至17:00分号圣诞节期间12月26日至1月6日10:00至16:00逗号农舍不开放逗号小火车不开放马车代步无须预定逗号票价5欧
3月30日至11月3日周2至周7冒号12:00至16:00
3月30日至11月3日周2至周7冒号12:00至16:00
3月30日至11月3日周2至周7冒号12:00至16:00
3月7:00至18:00分号4月至9月7:00至12:30逗号14:30至19:00分号10月至次年2月7:00至17:00
3月末周7至8月31日冒号9:00至19:30逗号9月冒号9:00至19:00逗号10月冒号9:00至18:30逗号11月至2月15日冒号9:00至16:30逗号2月16日至3月15日冒号9:00至17:00逗号3月16日末周6冒号9:00至17:30休馆:1月1日逗号12月25日
3月至10月08:30至20:00逗号11月至2月08:30至18:00逗号1月1日逗号12月25日闭馆夜场:周4至周6冒号22:00至23:30逗号周5周6冒号20:00至21:30
3月至10月10:00至12:30逗号14:00至18:00分号11月至次年2月9:30至12:30逗号14:00至17:30
3月至10月10:00至17:00逗号11月至2月10:00至16:00
3月至10月10:00至18:00分号11月至次年2月10:00至16:00分号周1闭馆
3月至10月8:30至20:00逗号11月至2月8:30至18:00逗号12月15日逗号1月1日闭馆
3月至10月9:00至18:00
3月至10月9:00至24:00逗号11月至2月10:00至24:00
3月至10月9:30至18:00分号10月至2月9:00至17:00
3月至10月9:30至18:00逗号11月至2月9:00至17:00
3月至10月冒号9:00至18:00分号11月至2月冒号9:00至17:00分号12月24日闭馆时间为16:00分号部分周6延长开馆时间:2012年7月7日至22:00分号2012年8月4日至22:00分号2012年9月1日至次日24:002:00(langenachtdermuseen)分号2012年10月6日至20:00
3月至10月冒号周1至周7冒号10:00至19:30(最后入场时间为18:00)分号11月至2月冒号周2至周5冒号10:00至18:00(最后入场时间16:30)逗号周1闭馆分号周6逗号日及公众假期10:00至19:30(最后入场时间为18:00)
3月至10月冒号周4冒号17:30逗号周5冒号10:30逗号15人以内团体也可提前预定其他时间参观
3月至10月周1至周6冒号10:00至17:30逗号周7冒号13:30至17:30分号11月至次年2月周2至周6冒号10:00至13:00逗号13:30至16:00逗号周7冒号13:00至17:00
3月至10月周1至周6冒号9:00至18:00周7冒号12:00至18:00逗号11月至2月周1至周6冒号9:00至16:00周7冒号12:00至16:00
3月至10月周2至周6冒号09:00至17:30逗号周7至周1冒号10:00至17:30逗号11月至2月周2至周6冒号09:00至16:30逗号周7至周1冒号10:00至16:30
3月至5月9:00至19:00逗号6月至9月9:00至20:00逗号9月至10月9:00至19:00逗号11月至3月10:00至16:00
3月至6月9:30至18:00逗号7月至8月9:30至20:00逗号9月9:30至18:00逗号10月至1月10:00至18:00逗号12月24日和12月31日10:00至17:00逗号2013年1月7日至3月16日关闭
3月逗号4月逗号9月和10月逗号7:00至19:00分号5月至6月7:00至20:00分号7月至8月7:00至22:00分号11月至次年2月7:00至17:00
3至10月9:45至17:15逗号11月至2月9:45至16:15
45mintoursinenglish3.15pmtue逗号wedyear至round逗号12.15pmsunapr至sep
4月10日至10月10日06:00至23:00逗号10中旬至4月10日06:00至21:00
4月10日至10月的周2至周7逗号10:00至18:00分号11月至4月10日的周2至周7逗号11:00至17:00
4月10日至9月10日周1至周4逗号周7冒号11:00至22:00逗号周5冒号11:00至次日0:30逗号周6冒号11:00至24:00
4月1日至10月15日9:00至18:00逗号10月16日至次年3月30日10:00至17:00(游览时间大约在三小时左右或者需要更长时间)
4月1日至10月31日10:00至18:00逗号11月1日至3月31日10:00至17:00
4月1日至10月31日10:00至18:00逗号11月1日至3月31日10:00至17:00
4月1日至10月31日9:30至18:00分号11月1日至3月31日9:30至16:30
4月1日至10月31日冒号周1至周7冒号10:00至18:00分号11月1日至3月31日冒号周1至周7冒号10:00至17:00分号博物馆关闭前30分钟停止入内
4月1日至10月31日冒号周1至周7冒号10:00至18:00分号11月1日至3月31日冒号周1至周7冒号10:00至17:00分号博物馆关闭前30分钟停止入内
4月1日至6月20日12:00至0:00分号6月21日至8月1日11:00至0:00分号8月2日至9月6日12:00至0:00
4月1日至9月30日9:00至19:30逗号10月1日至次年3月31日9:30至18:00
4月1日至9月30日冒号9:00至19:00(最后进入博物馆时间:18:30)10月1日至3月31日冒号9:00至17:00(最后进入博物馆时间:16:30)博物馆周1闭馆逗号但公园仍开放1月1日逗号复活节逗号万圣节逗号圣诞节不开放
4月1日至9月30日冒号周1至周5冒号10:00至18:00周6至周7冒号10:00至19:00逗号10月1日至3月31日冒号10:00至18:00
4月1日至9月30日逗号10:00至23:00分号10月1日至3月31日逗号10:00至22:30(关闭前45分钟停止售票)
4月24日至10月10日
4月冒号周1闭馆周2至周51​​0:00至17:00分号周6冒号10:00至19:00分号周7冒号10:00至20:00分号10月冒号周1休馆周2至周51​​0:00至14:00分号周6和周71​​0:00至17:00分号1月6日逗号5月28日逗号8月​​15日逗号10月12日逗号11月1日逗号12月6日和26日冒号1​​0:00至14:00每年的1月1日逗号5月1日逗号6月24日和25日休息
4月至10月09:00至18:00逗号10月至3月10:00至16:00关闭时间:1月1日逗号圣灰瞻礼日逗号圣诞前夜逗号圣诞节逗号元旦前夜
4月至10月10:00至13:00pm逗号16:00至20:00逗号11月至3月10:00至13:00pm逗号15:00至18:00
4月至10月10:00至17:00逗号11月至3月10:00至16:00闭馆时间:12月25日逗号1月1日逗号5月1日
4月至10月10:00至17:30逗号11月至3月周3至周7冒号10:00至17:30逗号7月至8月10:00至18:00
4月至10月10:00至18:00逗号11月至3月10:00至16:00逗号12月25日逗号1月1日闭馆休息
4月至10月10:00至18:00逗号11月至3月10:00至17:00
4月至10月10:00至18:00逗号11月至次月10:00至16:00
4月至10月10:00至19:00逗号11月至3月逗号周6至周7冒号10:00至17:00
4月至10月10日9:00至18:00逗号周4冒号09:00至20:00分号10月10日至次年3月10:00至16:00
4月至10月10日的周2至周710am至6pm
4月至10月7:00至19:00逗号11月至3月7:00至18:00
4月至10月8:30至19:00逗号11月至3月8:30至17:30逗号12月25日和1月1日闭馆
4月至10月9:00至18:30分号11月至次年3月9:00至16:00
4月至10月9:00至19:00逗号11月至3月10:00至18:00逗号12月25/26日休息
4月至10月9:00至20:00分号11月至次年3月9:00至18:00
4月至10月9:30至18:00分号11月至次年3月9:30至16:30分号12月25日逗号12月26日关闭分号每年5月至7月逗号皇室来访和国家集会期间荷里路德宫会关闭逗号不对外开放逗号请参照官方网站的具体日期
4月至10月9:30至18:30逗号周6及周7延长至19:00分号11月至3月10:00至17:00逗号周6及周7延长至17:30
4月至10月冒号10:15至18:00逗号11月至3月冒号10:00至17:30
4月至10月冒号10am至5.30pm分号11月至3月冒号10am至4:30pm
4月至10月冒号周2至周6冒号09:30至19:00逗号11月至3月冒号周2至周6冒号09:30至18:00
4月至10月及12月每天15:00提供有导游的游览服务分号1月至3月及11月仅周6和周7开放
4月至10月周1至周5冒号10:30至16:30逗号周6冒号11:00至14:00
4月至10月周1至周6冒号10:30至12:45逗号16:00至19:00逗号周7冒号11:00至12:45
4月至10月周1至周6冒号11:00至15:00
4月至10月周2至周7冒号10:00至16:30分号11月至次年3月周2至周5冒号10:00至16:30分号圣诞集市期间每天都开放
4月至10月周2至周7冒号10:00至18:00
4月至10月周2至周7冒号10:00至18:00逗号11月至次年3月周2至周7冒号10:00至17:00
4月至10月周6至周3冒号13:00至17:00
4月至10月期间逗号周1至周6逗号09:30至16:30分号周7逗号13:00至16:30分号11月至3月期间逗号周1至周6逗号10:30至15:30分号周7逗号13:00至15:30
4月至10月的周2至周7逗号10h至14h逗号17h至21h分号11月至3月的周2至周7逗号10h至14h逗号16h至19h
4月至10月逗号08:30至18:00分号11月至3月逗号08:30至17:00
4月至10月逗号10:30(周7逗号节日11:00)至13:15逗号16:00至19:30(周7逗号节日19:00)11月至3月逗号10:30(周7逗号节日11:00)至13:15逗号15:30至18:15
4月至10月逗号周3至周5冒号13:00至17:00逗号周6逗号周7及假日11:00至17:00
4月至10月逗号每天10:00至20:00分号11月至3月逗号每天10:00至18:00
4月至11月周3至周7冒号11:00至17:00逗号11月至3月周6至周7冒号10:00至16:00
4月至11月周6冒号10:30逗号12:00逗号周7冒号10:30逗号12:00逗号14:15逗号15:30
4月至11月的周2至周7逗号10:00至18:00逗号最晚进入时间逗号16:30
4月至6月9:00至12:30逗号14:30至19:00分号7月至9月9:00至19:00逗号周7冒号12:30至14:30关闭分号11月至次年3月9:00至12:30逗号14:30至18:00分号珍宝室提前30分钟关闭逗号周7和教会节日14:30开放
4月至6月周1至周67月至8月周1至周69月至3月周1至周5冒号10:00至12:00分号14:00至16:00
4月至6月和10月9:30至16:00分号7月至9月9:30至16:30分号11月至次年3月10:00至15:30
4月至9月10:00至17:00逗号10月至3月10:00至16:00
4月至9月10:00至17:30逗号10月10:00至16:30逗号11月至2月10:00至15:00逗号3月10:00至16:00
4月至9月10:00至18:30逗号10月至3月10:00至18:00逗号1月1日逗号5月1日逗号12月25日闭馆
4月至9月10:00至19:00逗号10月至5月周1至周6冒号09:00至16:00周7冒号10:00至18:00
4月至9月9:00至17:30逗号10月9:00至16:30逗号11月至3月周6至周3冒号09:30至16:30
4月至9月9:00至18:00分号10月和3月9:00至17:00分号11月至次年2月9:00至16:30
4月至9月9:00至18:00分号10月至次年3月10:00至16:00分号请跟随导游导览
4月至9月9:00至18:00逗号10月至次年3月10:00至16:00需跟随导游导览
4月至9月9:00至20:00分号10月至次年3月9:00至18:00时分
4月至9月9:00至20:00逗号10月至3月9:00至18:00
4月至9月9:30至17:30逗号10月至3月9:30至16:30
4月至9月9:30至18:00分号10月至次年5月9:20至17:00
4月至9月冒号09:30至23:00逗号10月至3月冒号10:00至23:00平台开放至22:00lastrideeuroscopeat21:45hrsbrasserieopentill23:00hrskitchenopentill22:15hrsdeliopentill20:00hrs
4月至9月冒号10:00至16:30逗号10月至3月冒号10:00至16:00
4月至9月冒号10am至4pm分号11月至3月冒号10am至3pm
4月至9月冒号7:30至18:00逗号10月至5月冒号7:30至17:00
4月至9月冒号8:00至20:00逗号3月至10月冒号9:00至18:00逗号11月至2月冒号10:00至17:00
4月至9月冒号周1冒号13:00至18:00逗号周2至周6冒号10:00至18:00分号10月至3月周1至周6冒号10:00至15:00
4月至9月冒号周7逗号周1冒号10:00至20:00逗号周2至周4冒号10:00至18:00逗号周5冒号10:00至17:00逗号3月至10月冒号周7逗号周1冒号10:00至20:00逗号周2至周4冒号10:00至18:00逗号周5冒号10:00至14:00逗号11月至2月冒号周7至周4冒号10:00至18:00逗号周5冒号10:00至14:00周6关闭
4月至9月周1至周6冒号09:00至18:00逗号周7和节假日9:00至15:00分号10月至次年3月周1至周6冒号09:30至17:00逗号周7和节假日9:00至14:00
4月至9月周1至周6冒号09:30至17:30周7冒号13:00至17:30逗号10月至3月周1至周6冒号09:30至16:00周7冒号13:00至16:00
4月至9月周1至周7冒号9:30至19:00分号10月至次年3月周1至周7冒号9:30至17:00分号1月1日逗号1月6日逗号12月25日关闭
4月至9月周1至周7逗号9:00至21:00逗号10月至3月周1至周7逗号9:00至19:00
4月至9月周1逗号周5冒号10:00至17:30逗号周2至周4冒号09:00至18:30逗号周6和公共假日11:00至17:30逗号10月至3月周1逗号周5冒号10:00至16:00逗号周2至周4冒号09:00至18:30逗号周6和公共假日11:00至17:30
4月至9月逗号周2至周7冒号10:00至18:00分号10月逗号周2至周7冒号10:00至16:00分号11月至3月逗号周2至周6冒号10:00至16:00分号周1关门
4月逗号10月逗号11月9:00至16:30分号5月逗号6月逗号9月9:00至17:30分号7月逗号8月9:00至21:00(18点以后只有水机关)
4至10月冒号11am至5pm分号11月至3月冒号11am至4pm
4至9月冒号周1至周6冒号09:00至17:30逗号周7冒号11:00至17:3010至3月冒号周1至周6冒号09:0017:00逗号周7冒号11:30至17:00礼拜或有活动时谢绝参观
5:00至20:00
5:00至24:00
5月10日至8月11:00至15:00
5月10日至8月31日10:00至16:00逗号9月1日至5月10日12:00至16:00
5月10日至8月31日10:00至16:00逗号9月至5月10日周4冒号15:00至18:00逗号周5至周3冒号12:00至15:00
5月10日至9月10日11:00至17:00逗号9月10日至次年5月10日午至16:00
5月15日至8月31日周1至周7冒号10:00至18:00逗号9月至5月14日周2至周5冒号10:00至15:00逗号周6至周7冒号10:00至16:00
5月15日至9月14日周2至周7冒号10:00至17:00逗号9月15日至5月14日11:00至16:00
5月15日至9月15日10:00至17:00逗号9月16日至5月14日周7冒号11:00至14:00
5月15日至9月15日10:30至18:00
5月15日至9月15日9:00至17:00逗号9月16日至5月14日周2至周6冒号11:00至14:00逗号周7冒号11:00至16:00
5月15日至9月16日10:00至17:00逗号9月17日至5月14日周2至周7冒号12:00至16:00
5月15日至9月16日每日10:00至17:00逗号9月26日至次年5月13日闭馆
5月16日至9月16日9:30至18:10逗号9月31日至3月31日(周1除外)9:30至16:45逗号4月1日至5月15日9:30至16:45
5月1日至9月30日10:00至18:00
5月2日至9月30日周2至周6冒号13:00至17:00
5月至10月10:00至18:00
5月至10月10:00至18:00逗号11月至次年4月10:00至17:00周2及节假日闭馆
5月至10月9:00至20:00逗号11月至4月10:00至18:00分号周7休息
5月至10月9:30至20:00逗号11月至4月9:30至19:00逗号复活节与12月25日关闭逗号若参观当天有斗牛比赛逗号请电话咨询具体时间
5月至10月的周2至周7冒号09:00至17:00
5月至10月的周4至周7逗号21:00至23:00
5月至10月逗号周2至周7冒号09:00至17:00分号11月至次年4月仅在特展期间开放
5月至8月10:00至16:00逗号9月至4月周1至周5冒号11:00至15:00逗号周6冒号12:00至15:00逗号周7冒号12:00至16:00
5月至8月11:00至16:30逗号9月12:00至15:30
5月至8月周1至周6冒号10:00至16:00逗号周7冒号12:30至16:00逗号9月至4月周6逗号周7冒号12:00至17:00
5月至8月每天分号9月至次年4月周2至周7休馆日冒号周1分号12月24逗号25逗号31日分号1月1日
5月至9月10:30至17:00逗号其中周3和周4冒号10:30至15:30分号10月至4月逗号周5至周7冒号10:30至16:00
5月至9月11:00至17:00逗号10月至4月周2至周7冒号11:00至17:00
5月至9月9:00至17:00
5月至9月9:00至18:00分号10月至次年4月开放时间稍短
5月至9月9:00至18:00逗号10月至4月10:00至16:00
5月至9月9:00至19:00逗号4月和10月9:00至18:00逗号11月至次年3月9:00至17:00
5月至9月冒号8:30至18:00(夏季)分号10月至4月冒号8:30至16:00(冬季逗号周1逗号周2不开)
5月至9月周1至周5冒号09:00至19:00逗号周6冒号09:00至17:00逗号周7冒号13:00至17:00逗号10月至4月周1至周6冒号09:00至17:00逗号周7冒号13:00至17:00逗号12月25日逗号12月26日逗号1月1日逗号1月2日不开放逗号宗教活动时间除外
5月至9月周1至周5冒号09:00至19:00逗号周7冒号11:00至18:00逗号10月至4月周1至周5冒号09:00至17:00逗号周7冒号11:00至16:00
5月至9月周2至周7冒号10:00至17:00周1闭馆10月至次年4月周3至周5冒号13:00至16:00周6逗号周7冒号11:00至16:00周1逗号周2闭馆
5月至9月周3至周1冒号10:00至18:00逗号9月至5月周3至周1冒号10:00至16:00
5月至9月每天11:00至18:00分号10月周5至周7冒号11:00至16:00
5至10月10:00至16:00逗号其他月11:00至16:00
5至8月11:00至16:00分号9月周2至周7冒号11:00至15:00分号10月至4月周6逗号日14:00至15:00
6:00至12:30分号16:00至19:15
6:00至21:00逗号全年开放逗号园中的城堡现在关闭装修逗号将改成博物馆重新开放
6:00至22:00
6月10:00至21:00逗号7月10:00至20:00逗号8月10:00至19:00逗号9月10:00至17:00周1不开放
6月16日至9月16日周1至周5冒号08:00至14:30逗号9月16日至次年6月16日周1至周5冒号08:00至15:00
6月19至8月23有诺贝尔颁奖典礼为主题的英文导览每日11:30逗号12:30逗号15:00逗号16:00
6月1日至10月31日10:00至18:00逗号11月1日至5月31日周2至周5冒号09:00至17:00周6至周7冒号10:00至18:00周1闭馆休息12月25日逗号1月1日逗号5月1日闭馆休息
6月1日至9月30日冒号周2至周6冒号11:00至17:00逗号周7冒号10:00至17:00分号10月1日至5月31日冒号周2至周6冒号14:00至17:00逗号周7冒号10:00至12:00逗号14:00至17:00
6月20日至8月15日周3至周7冒号11:00至17:00逗号5月20日至6月19日逗号8月16日至9月9日周6逗号周7冒号11:00至17:00
6月30日至7月8日9:30至18:30逗号7月31日至10月7日 9:30至18:305至7月间每天11:30举行换岗仪式逗号其他时间隔天举行
6月至10月冒号9:00至18:00逗号11月至5月冒号10:00至17:00(周2休馆)
6月至8月11:00至17:00逗号9月至5月周2至周7冒号12:00至17:00
6月至8月7:00至19:00逗号9月至5月周1至周6冒号07:00至16:00
6月至8月周1至周5冒号11:00至16:00逗号9月至5月周2至周5冒号11:00至12:30
6月至8月周1至周6分号9月至次年5月周2至周6
6月至8月周2冒号11:00至20:00逗号周3至周7冒号11:00至17:00逗号9月至5月周2逗号周4冒号11:00至20:00逗号周3逗号周5至周7冒号11:00至17:00周1闭馆
6月至8月周7至周4冒号11:00至16:00
6月至8月旺季逗号银和金威士忌导览(silver/goldwhiskytour)每日多次逗号最早10:20逗号最晚18:00逗号白金威士忌导览于每日18:15分号威士忌商店于10:00至19:00开放分号9月至5月10:00至18:00逗号每日导览的最后一次在17:00开始
6月至8月逗号9:00至19:00分号11月至2月逗号9:30至16:30分号3月至5月逗号9月和10月逗号9:00至17:30
6月至9月冒号周2至周5冒号9:30至19:00分号周6冒号10:00至19:00分号周7冒号10:00至18:00周1闭馆10月至次年5月冒号周2冒号8:30至16:00分号周3至周5冒号9:30至16:00分号周6冒号10:00至16:00分号周7冒号10:00至15:00分号周1闭馆
6月至9月周2至周712至15点每个整点逗号必须在导游带领下游览
6至10pmfri10am至6pmwed至mon逗号10am至10pmfri
6至8月10:00至17:30分号11至12月闭馆分号其他月11:00至16:00分号节假日休息
6至9月11:00至18:00逗号其它时间10:00至17:00
7:00至12:00逗号14:00至17:00
7:00至12:30分号15:30至19:00(10月至3月提早至18:00)
7:00至13:00逗号16:00至19:30
7:00至17:00
7:00至18:00
7:00至18:00逗号夏季延长至20:00
7:00至19:00
7:30至12:30分号15:30至19:30
7:30至14:15
7:30至17:00
7:30至18:00
7:30至18:30
7:30至23:00
7:45至13:15逗号15:00至18:30
7:45至13:15逗号15:00至18:30弥撒期间逗号非教徒不能进入正殿逗号只能在祭台周围参观
7am至18:00分号温室逗号10am至4.45pm
7am至7pm
7月22日至9月27日布展休馆
7月及8月逗号周2至周7逗号9:00至18:00分号5月逗号6月及9月逗号9:00至17:00分号4月及10月逗号9:00至16:00
7月至8月9:00至16:30逗号5月逗号6月逗号9月逗号10月9:00至15:30
7月至8月9:00至20:00(7月至8月)逗号其余时间9:00至17:30(最晚入馆时间闭馆前30分钟)莫扎特音乐周mozartwoche期间可能因为音乐会原因闭馆
7月至8月冒号周2至周7冒号10:00至16:00逗号9月至6月冒号周2至周7冒号12:00至16:00逗号周3冒号12:00至19:00
7月至9月09:45至20:00逗号10月至3月09:45至16:00逗号4月至6月09:30至17:00
7月至9月10:00至21:00逗号10月至6月周1至周5冒号10:00至18:00逗号周6至周7冒号10:00至19:30
7月至9月逗号周3至周7冒号10:00至17:00
7欧元/人分号含导游10欧元
7至8月每天10点至19点逗号其余时间10点至18点逗号但是如果当天有斗牛活动逗号会提前4小时关闭(12月25和1月1日关闭)
8.:00至12:00逗号16:00至19:00
8:00am至18:00
8:00至12:0015:00至19:00
8:00至12:00分号16:00至19:10
8:00至12:30分号16:00至18:30
8:00至17:00
8:00至17:00
8:00至17:00
8:00至17:00
8:00至17:00
8:00至19:00
8:00至19:00
8:00至19:00
8:00至20:00
8:00至20:00(4月至9月)9:00至19:00(10月)10:00至17:00(11月至2月)9:00至18:00(3月)
8:15至13:50(13:20停止售票)每月第一逗号第三逗号第五个周7逗号第二和第四个周1逗号以及1月1日逗号5月1日逗号12月25日休息
8:15至18:00
8:30至17:00
8:30至19:30(周1休馆)
8:45至13:30周7和公共节假日闭馆
8am至1pm逗号3至8pm
8am至5pmmon至fri
8月至6月周7至周4冒号11:00至16:00
9.30am至5pmtue至sun
9:00至12:00分号15:00至18:00
9:00至12:00逗号13:00至15:00
9:00至12:00逗号15:00至17:30
9:00至12:00逗号15:00至19:00
9:00至12:00逗号2:00至18:00逗号节假日不开放
9:00至12:30分号15:00至18:00(周7冒号10:00开放)
9:00至16:00逗号6月工作日延长至17:00逗号7逗号8月工作日延长至18:00
9:00至16:30
9:00至17:0
9:00至17:00
9:00至17:00
9:00至17:00
9:00至17:00
9:00至17:00
9:00至17:00
9:00至17:00
9:00至17:00
9:00至17:00
9:00至17:00
9:00至17:00
9:00至17:00
9:00至17:00
9:00至17:00
9:00至17:00
9:00至17:00
9:00至17:00最后入场时间是16点闭馆时间:圣诞逗号新年及少数宗教节日
9:00至17:00逗号周1至周6分号8:00之前逗号12:00至15:00逗号17:00以后逗号周7
9:00至17:00逗号最后入场时间是16点闭馆时间:圣诞逗号新年及少数宗教节日
9:00至18:00
9:00至18:00
9:00至18:00
9:00至18:00
9:00至18:00
9:00至18:00(售票处提前30分钟关闭)逗号1月1日闭馆逗号12月25日开放至18:00
9:00至18:00分号闭馆时间各个月不同逗号冬季至16:30逗号夏季至18:30
9:00至18:00前两小时
9:00至18:00周1闭馆
9:00至18:00每月第一个周7冒号09:00至18:00逗号5月1日逗号7月14日上午逗号12月25日及每个周2闭馆
9:00至19:00
9:00至19:00(冬季至16:00)
9:00至19:00(周1关闭)
9:00至19:30
9:00至19:45(周1休馆)
9:00至20:00
9:00至20:00(7月至8月)逗号其余时间9:00至17:30(最晚入馆时间为闭馆前30分钟)
9:00至22:00
9:0至17:00
9:15至17:45逗号周2及1月1日逗号5月1日及12月25日休馆
9:30至11:30am逗号1至4pmmid至jun至late至aug逗号11am至12.30pmtue至frirest至of至year
9:30至11:30逗号15:00至18:00逗号周1至周5
9:30至15:45夏季至17:00逗号10月至19:00逗号12月25日和1月1日关闭
9:30至16:30
9:30至17:00(冬)分号9:30至19:00(夏)
9:30至17:30
9:30至17:30
9:30至17:30(冬季开放至16:30)
9:30至17:45逗号周1闭馆
9:30至18:00
9:30至18:00
9:30至18:00分号周4冒号21:45关门分号1月1日逗号5月1日逗号12月25日及周1闭馆
9:30至19:00
9:30至19:30
9:30至23:30
9am至6pmapr至sep逗号9am至5pmoct至mar
9am至6pmmon至fri逗号10am至6pmsat逗号sunoct至apr逗号9am至8pmmon至fri逗号10am至8pmsat逗号sunmay至sep
9月15日至3月14日冒号每日9:00am至7:00pm(周6冒号09:00am至9:00pm)3月15日至9月14日冒号每日9:00am至9:00pm逗号(周6冒号09:00am至10:00pm)7月8月每天开至晚上10点提前30分钟结束售票
9月16日至6月15日冒号周7至周4冒号10:00至17:00周5冒号9:00至14:00逗号6月15日至9月16日冒号周7至周4冒号10:00至19:00周5冒号10:00至16:00休馆:周6逗号1月1日逗号8月15日及犹太历假日
9月至4月10:00至18:00逗号5月至8月9:00至19:00
9月至4月周1至周5冒号10:00至16:00逗号周6至周7冒号10:00至17:00逗号5月周1至周5冒号10:00至17:00周6至周7冒号10:00至18:00逗号6月1日至6月21日逗号8月6日至8月31日周1至周5冒号10:00至18:00周6至周7冒号10:00至19:00逗号6月21日至8月5日10:00至20:00逗号圣诞前10:00至15:00
9月至4月周2至周3逗号周5至周7冒号11:00至17:00逗号周4冒号11:00至20:00逗号5月至6月11:00至17:00逗号7月至8月10:00至18:00
9月至4月周2至周7冒号11:00至17:00逗号周3冒号11:00至20:00逗号5月至8月10:00至17:00
9月至5月11:00至19:30最后入场17:30逗号6月至8月10:30至21:00最后入场19:00
9月至5月周2至周5冒号10:00至15:00逗号周6冒号11:00至16:00逗号6月至8月周2至周5冒号10:00至16:00周6至周7冒号11:00至16:00博物馆花园8:30至23:00温室周1至周5冒号10:00至12:00逗号13:00至14:30
9月至5月周2至周5冒号10:00至15:00逗号周6冒号11:00至16:00逗号6月至8月周2至周5冒号10:00至16:00逗号周6至周7冒号11:00至16:00博物馆花园8:30至23:00分号温室周1至周5冒号10:00至12:00逗号13:00至14:30
9月至5月周4至周1冒号10:00至17:00逗号周3冒号10:00至20:00逗号6月至8月8:30至18:00
9月至6月9:00至17:30逗号7月至8月9:00至18:00
9月至6月9:00至17:30逗号7月至8月9:00至18:00
9月至6月周1至周6冒号11:00至17:00逗号周7冒号14:30至18:00逗号7月至8月周1至周7冒号09:30至15:30
9月至6月周1逗号周3至周5冒号11:00至19:30逗号周6至周7及其他节假日10:00至20:00
9月至7月周2至周7冒号10:00至15:00
:冬季逗号周2至周5冒号10:00至17:00逗号周7及节假日延长至19:00逗号周1闭馆分号夏季逗号周2至周5冒号10:00至17:00逗号周7及节假日延长至20:00(casadeserralves19:00关闭)逗号周1闭馆分号每年12月25日逗号1月1日闭馆分号12月24日和31日16:00闭馆由于安排新展览等原因逗号casa会临时性关闭逗号具体请查询官网
byappointment
cccb:全年开放逗号每日11:00至15:00分号但12月24日逗号25日逗号31日和1月1日闭馆休息12月26日和5月1日开放时间会根据不同的活动而稍有变动展览:周2至周7冒号11:00至20:00分号逢周1逗号节假日休息票务柜台中心在闭馆前半小时停止售票
daylight
daylighthrs
guidedtours10.15am逗号11am逗号11.45am逗号12.30pm逗号5.15pm逗号6pm逗号6.45pm逗号7.30pm
microcosm周1至周5冒号08:30至17:30逗号周6冒号09:00至17:00分号universalofparticles周1至周6冒号10:00至17:00
noon至4pmmon逗号10am至5pmtue至sunjun至sep逗号noon至4pmmon逗号10am至4pmtue至sunoct至may
tuesdaytosaturday:10amto7pmsundayandholidays:11amto8pmmonday逗号exceptholidays:closedentryintomuseumhallsupto30minutesbeforeclosingtime
tue至sun10:00至17:00逗号10:00至17:00tue至sat
varietymarket周5冒号06:00至14:00cityfoodandgardenmarket周6冒号09:00至15:00sundaymarket周7冒号10:00至16:00
一年只开放几天逗号集体参观可提前预约
一直24hrs
一直24小时
一直24小时
一直24小时
一直24小时对外开放
一直24小时开放
一直24小时开放
一直anytime
一直一直开放
一直不对外开放
一直不对外开放
一直不对外开放
一直不对外开放
一直不开放
一直不开放游览
一直不限
一直全天
一直全天
一直全天
一直全天
一直全天
一直全天
一直全天
一直全天
一直全天
一直全天
一直全天
一直全天
一直全天
一直全天
一直全天
一直全天
一直全天
一直全天
一直全天
一直全天
一直全天
一直全天
一直全天
一直全天
一直全天
一直全天
一直全天
一直全天
一直全天
一直全天
一直全天
一直全天
一直全天
一直全天
一直全天
一直全天
一直全天
一直全天
一直全天
一直全天
一直全天
一直全天
一直全天
一直全天
一直全天
一直全天
一直全天
一直全天
一直全天
一直全天
一直全天
一直全天
一直全天
一直全天
一直全天
一直全天
一直全天
一直全天
一直全天
一直全天
一直全天
一直全天
一直全天
一直全天
一直全天
一直全天
一直全天
一直全天
一直全天
一直全天
一直全天
一直全天
一直全天
一直全天
一直全天
一直全天
一直全天
一直全天
一直全天
一直全天
一直全天
一直全天
一直全天
一直全天
一直全天
一直全天
一直全天
一直全天
一直全天
一直全天
一直全天
一直全天
一直全天
一直全天
一直全天
一直全天
一直全天
一直全天
一直全天
一直全天
一直全天
一直全天
一直全天
一直全天
一直全天
一直全天
一直全天
一直全天
一直全天
一直全天
一直全天
一直全天
一直全天
一直全天
一直全天
一直全天
一直全天
一直全天
一直全天
一直全天
一直全天
一直全天
一直全天
一直全天
一直全天
一直全天
一直全天
一直全天
一直全天
一直全天(夜间为佳)
一直全天开放
一直全天开放
一直全天开放
一直全天开放
一直全天开放
一直全天开放
一直全天开放
一直全天开放
一直全天开放
一直全天开放
一直全天开放
一直全天开放
一直全天开放
一直全年全天
一直全年全天
一直全年开放
一直全年开放
一直全年开放
一直全年开放
一直关闭
一直关闭
一直内部不对公众开放
一直内部不对外开放
一直开放式景点
一直每天开放
一直私人所有逗号暂不向游人开放
一直这里不对外开放
一般商铺10:00至20:00
上午9时至晚上8时(不同展览开放时间会有调整)
人与自然博物馆开放时间:周1闭馆周2逗号三逗号五9:00至17:00周4冒号09:00至20:00周6逗号日及假日10:00至18:00皇家马车博物馆和瓷器博物馆开放时间:与宁芬堡宫相同
仅在活动举行期间对受邀人员开放
从5月至9月逗号导览
依据演出时间
全天(周7和晚5点后大部分店铺都关门)
全年10:00至17:00
全年开放(除12月24日和25日)逗号从早上10点至下午6店屋顶平台(rooftopterrace)下午01:00开放各类工作坊(workshop)需电话预约电话:0432043060
全景餐厅:周3逗号周4冒号00:15至13:30分号19:30至21:00分号周5冒号00:15至13:30分号19:30至21:30分号周6冒号00:15至13:30分号19:30至20:00分号周7冒号00:15至13:40分号不提供晚餐分号周1逗号周2休息
公园:全天开放园内各宫殿:周2至周5冒号09:00至16:00
公园是全年24小时开放博物馆周1及公众假期闭馆逗号9月至5月12:00至16:00逗号5月至8月10:00至17:00
内部暂不对外开放逗号仅可外观
冬天10:00至17:30逗号夏季10:00至18:30分号关闭前半小时停止游客进入逗号关闭时间:周1逗号1月1日逗号5月1日逗号复活节和圣诞节
冬天10:00至17:30逗号夏季10:00至18:30分号关闭前半小时停止游客进入逗号关闭时间:周1逗号1月1日逗号5月1日逗号复活节和圣诞节
冬季(10月1日至4月30日):周2至周6冒号10:15至17:45分号周7和公共假日10:15至14:45夏季(5月1日至9月30日):周2至周6冒号10:15至19:45分号周7和公共假日10:15至14:45
冬季10:00至12:00逗号14:00至17:00逗号夏季09:30至13:00逗号14:00至19:00逗号8月10日午不关闭｡
冬季9:30至18:15分号夏季9:30至18:30逗号夏季周7冒号09:30至19:00最后一批搭乘电梯的时间为关闭前15分钟12月24日13:00关闭逗号12月25日14:30开放逗号12月31日18:15关闭逗号1月1日10:00开放
冬季周1至周6冒号11:00至17:30(售票处17:00关门)逗号周7冒号14:30至18:30(售票处18:00关门)分号夏季(7月和8月)周1至周6冒号09:30至16:30(售票处16:00关门)逗号周7冒号14:30至18:30(售票处18:00关门)
冬季时间(11月至3月):9至18点分号夏季时间(4至10月):9至19点
升降机开放时间:冬季7:00至22:00逗号夏季7:00至23:00观景台开放时间:8:30至20:30
博物馆10:00至18:00逗号公园15:30开放参观周2及法定节假日闭馆
博物馆:周1至周5逗号周7冒号9:00至17:00分号周6冒号10:00至18:00
博物馆:周1至周7冒号10:00至20:00分号19:30停止售票周7冒号15:00可免费入场闭馆:1月1日逗号6日分号12月25日和26日图书馆需预约方可进入
博物馆开放时间:9:00至12:30(最后进入时间为12:00)逗号13:30至17:30(最后进入时间为17:00)闭馆时间:12月7日逗号12月24日下午逗号12月25至26日逗号12月31日下午逗号1月1日逗号复活节逗号5月1日逗号8月15日
博物馆开放时间:周2至周5冒号09:00至20:00分号周6冒号09:00至23:00分号周7冒号09:00至20:00分号周1闭馆观光电梯开放时间:周2至周5冒号10:00至20:00分号周6冒号10:00至23:00分号周7冒号10:00至20:00分号周1停开注意:最迟于关闭前1小时进入
博物馆开放时间:周2至周7冒号10:00至18:00总统府开放时间:周6冒号11:00至16:00周7冒号14:30至16:00闭馆时间:周1逗号元旦逗号复活节周的周5和周7逗号劳动节逗号平安夜当日及圣诞节
博物馆开放时间是每天(周2除外)10:00至18:00分号5月1日逗号12月25日逗号1月1日闭馆
参考时间7:00至19:00
参观:周1至周7冒号10:00至15:00(除比赛日)比赛:以官方时间为准
参观cathedral周1至周6冒号08:00至12:45(修道院8:30至12:30)逗号周7和节假日8:00至13:45(修道院8:30至13:00)
变动较多逗号请参考http://www.skansen.se/en/priser上的每日开放时间
只在活动时开放
只对音乐会开放
可选择搭乘地铁至ruedubac或varenne站下车
各个场馆的开放时间不尽相同逗号imax影院的第一场观影一般在11:00逗号夏季最后一场在22:00索菲亚皇后剧院的开放时间为周1至周5冒号09:00至20:00逗号周6冒号10:00至20:00逗号周7和公共节假日10:00至15:00
各教会开放时间不同画廊:周1至周6冒号09:30至12:30
周1不开放分号周2至周6冒号10:00至14:00逗号16:30至20:30分号周7冒号10:00至15:00
周1冒号08:15至14:0013:15分之后禁止入内周2至周7冒号08:15至9:1518:30分之后禁止入内)闭馆日冒号1月1日逗号5月1日逗号12月25日
周1冒号09:30至18:00周2冒号09:30至20:00周3至周5冒号09:30至18:00周6冒号09:30至17:00周7冒号11:00至17:00节假日11:00至17:00
周1冒号09:30至18:00周2冒号09:30至21:00周3/周4冒号09:30至18:00周5冒号09:30至19:00周6冒号8:00至22:00周7及公众假期开放时间:8:30至20:00
周1冒号10:00至14:00分号每年3月15日至10月15日的周2至周6冒号10:00至19:00逗号周7及公共节假日为10:00至15:00分号每年的10月16日至次年3月14日的周2至周6为10:00至18:00周7及公共节假日为10:00至15:00
周1冒号10:00至20:00逗号周2至周7冒号10:00至23:00
周1冒号13:30至19:30分号周2至周7冒号08:30至19:30
周1冒号13:45至19:30分号周2至周7冒号08:30至19:30
周1冒号13:45至19:30分号周2至周7冒号08:30至19:30
周1冒号闭馆分号周2至周5冒号中文12点至下午5点分号周6冒号早上10点至下午5点分号周7冒号下午2点至5点
周1周6冒号11:00至19:30周7冒号09:00至20:30
周1和周2冒号10:00至20:00逗号周3冒号12:00至20:00逗号周4至周6冒号10:00至17:00逗号周7冒号13:00至17:00
周1和周7逗号10am至5pm分号周2至周6逗号12:00am至5pm
周1至周3
周1至周3冒号09:00至21:00/周4至周7冒号09:00至23:00
周1至周3冒号10:00至16:00周4至周7冒号10:00至13:00
周1至周3冒号11:30至14:30周7冒号11:00至17:00
周1至周3逗号周5至周7冒号09:00至18:00分号周4冒号09:00至20:00
周1至周410am至5pm周510.30am至5pm周610am至5pm周712.30am至5pm
周1至周4冒号07:00至0:00逗号周5冒号07:00至0:30逗号周6冒号08:30至0:30逗号周7和节假日9:00至0:00
周1至周4冒号08:00至16:00逗号周5冒号08:00至14:00逗号每月的第一个周7冒号10:00至16:00
周1至周4冒号09:00至12:30逗号14:00至16:30逗号周5冒号09:00至12:30
周1至周4冒号09:00至17:30分号周5冒号11:00至17:30逗号分号周6冒号09:00至17:00分号周7和部分节假日13:00至17:00分号公共节假日闭馆
周1至周4冒号09:30至18:00逗号周5冒号09:30至19:00逗号周6冒号09:30至16:00
周1至周4冒号10:00至15:00逗号周5冒号10:00仅限带导游参观
周1至周4冒号10:00至20:00逗号周5至周6冒号10:00至21:00逗号周7和节日冒号10:00至20:00逗号12月24号逗号31号:上午10:00至下午6:00逗号9月至6月周1逗号圣诞节当天和1月一日休息
周1至周4冒号10:15至15:15(每小时一次)周5至周7冒号10:15至13:00
周1至周4冒号11:00至21:00逗号周5至周7冒号11:00至18:00
周1至周4冒号13:00至18:00
周1至周4冒号9:00至16:30(周5至13:00)周7冒号09:00至12:30
周1至周4冒号9:00至17:30(周5提前至16:30)
周1至周4和周6冒号10:00至17:00周5和周7冒号11:00至17:00
周1至周4和周6冒号10:00至17:00周5和周7冒号11:00至17:00
周1至周4逗号10am至5pm分号周5逗号周6逗号11am至5pm
周1至周4逗号10am至5pm分号周5逗号周6逗号11am至5pm
周1至周4逗号10am至5pm分号周6至周5逗号11am至5pm
周1至周4逗号周7冒号10:00至16:00逗号周5冒号16:00至24:00逗号周6冒号00:00至16:00
周1至周5(节假日除外)10:00至12:30逗号13:30至17:00
周1至周58.00am至5.00pm逗号周6周78.00am至3.15pm
周1至周5冒号07:00至17:00逗号周6冒号13:00关门逗号周7不营业
周1至周5冒号07:00至18:00逗号周6冒号08:30至15:30逗号周7冒号14:00至18:00
周1至周5冒号07:00至20:00分号周6周7冒号09:00至20:00
周1至周5冒号07:30至12:00逗号13:00至18:00分号周6冒号07:30至12:00分号周7冒号09:00至12:00
周1至周5冒号07:30至23:00逗号周6至周7冒号08:00至23:00
周1至周5冒号08:00am至6:00pm
周1至周5冒号08:00至12:00逗号14:00至19:00逗号周6逗号周7冒号08:00至12:00逗号14:00至17:00逗号复活节逗号5月1日逗号圣灵降临节逗号7月14日及11月11日8:00至12:00礼拜期间禁止游客拜访
周1至周5冒号08:00至12:45(修道院8:30至12:30)逗号周7和节假日8:00至13:45(修道院8:30至13:00)
周1至周5冒号08:00至15:00逗号周6冒号08:00至13:00
周1至周5冒号08:00至17:30逗号周6冒号09:00至15:00to15:00
周1至周5冒号08:00至18:00
周1至周5冒号08:00至18:00
周1至周5冒号08:00至18:00分号周6冒号08:00至16:00分号周7冒号08:00至14:00
周1至周5冒号08:00至18:00分号周6冒号08:00至16:00分号周7冒号08:00至14:00免费英语导览时间:10:00逗号12:00逗号14:00
周1至周5冒号08:00至18:00逗号周6冒号08:00至16:00分号夏季5月2日至8月31日10:00至16:00
周1至周5冒号08:00至18:00逗号周6冒号08:00至16:00逗号周7冒号11:00至17:00
周1至周5冒号08:00至18:00逗号周6冒号08:30至18:00逗号周7冒号09:00至18:00
周1至周5冒号08:00至20:00逗号周6和节假日10:00至19:00日逗号周7和圣诞节停业
周1至周5冒号08:00至次日24:001:30分号周6逗号周7冒号10:00至21:00
周1至周5冒号08:30至16:00逗号周6冒号08:30至15:30逗号周7冒号09:00至12:30
周1至周5冒号08:30至16:30pm逗号周6至周7冒号11:00至16:30
周1至周5冒号08:30至18:30
周1至周5冒号08:40至18:45逗号周6冒号08:45至13:30
周1至周5冒号09:00至17:00分号周6冒号09:00至13:00分号周7冒号13:00至17:00
周1至周5冒号09:00至17:00分号周6冒号09:00至16:30分号周7冒号11:00至17:00圣诞节逗号新年及复活节闭馆逗号因仪式有时会临时关闭目前正在施工逗号暂不开放
周1至周5冒号09:00至17:30分号周6和周7冒号09:00至16:30
周1至周5冒号09:00至18:00
周1至周5冒号09:00至18:00周6冒号10:00至17:00
周1至周5冒号09:00至18:00周7和节假日10:00至18:00逗号1月1日逗号5月1日逗号11月1日逗号12月25日逗号30日闭馆休息
周1至周5冒号09:00至18:00逗号可能因政务活动关闭开放
周1至周5冒号09:00至18:00逗号周6至周7冒号09:00至13:00
周1至周5冒号09:00至19:30逗号周6至周7冒号10:00至19:30
周1至周5冒号09:00至20:00周6至周7冒号09:00至18:00
周1至周5冒号09:00至20:00逗号4月至8月周6至周7冒号10:00至20:00逗号9月10:00至19:00逗号10月10:00至18:00
周1至周5冒号09:00至21:00逗号周6冒号09:00至17:00
周1至周5冒号09:30至17:30
周1至周5冒号09:30至17:30逗号周6至周7及其他公众假期9:00至18:00
周1至周5冒号09:30至19:30分号周6和周7冒号09:30至21:30
周1至周5冒号10:00至11:00和14:00至16:00周6工厂不开放
周1至周5冒号10:00至13:00逗号14:00至18:00逗号周6至周7冒号10:30至13:30逗号14:30至17:30
周1至周5冒号10:00至13:3016:00至19:30周6至周7冒号11:00至14:0016:30至20:30
周1至周5冒号10:00至13:30逗号16:00至19:30分号周6逗号日逗号及节假日11:00至14:00逗号16:30至20:30分号夏季开放时间为10:00至22:00
周1至周5冒号10:00至14:30逗号16:30至20:30周6至周7冒号10:00至20:30
周1至周5冒号10:00至17:00(最后进馆时间16:45)公共假日和周7闭关
周1至周5冒号10:00至17:00周6冒号10:00至15:00周7冒号13:00至16:00
周1至周5冒号10:00至17:00周6冒号10:00至15:00周7至休息
周1至周5冒号10:00至17:00每年10月至次年5月的周1不开放weareclosedonchristmasandnewyear至december24th逗号25th逗号26th逗号31st逗号andjanuary1st至butopenoneasterandallotherholidays
周1至周5冒号10:00至17:00逗号周3冒号10:00至20:00逗号周6日11:00至17:00
周1至周5冒号10:00至17:00逗号周6冒号09:00至17:00逗号周7冒号12:00至18:00
周1至周5冒号10:00至17:00逗号周6冒号10:00至14:00
周1至周5冒号10:00至17:00逗号周6至周7逗号节假日11:00至17:00逗号5月4日10:00至14:00逗号12月5日逗号12月24日逗号12月31日10:00至16:00逗号1月1日逗号4月30日逗号12月25日休息
周1至周5冒号10:00至18:00
周1至周5冒号10:00至18:00
周1至周5冒号10:00至18:00分号周6冒号10:00至17:00分号周7及节假日关闭
周1至周5冒号10:00至18:00分号周6逗号周7冒号11:00至19:00分号12月24日逗号12月25日逗号12月31日逗号1月1日逗号狂欢节逗号周1闭馆
周1至周5冒号10:00至18:00逗号周6周7冒号10:00至17:00
周1至周5冒号10:00至18:30(最后入场时间为17:30)分号周6逗号周7冒号10:00至19:00(最后入场时间为18:00)
周1至周5冒号10:00至18:30逗号周6冒号10:00至14:00
周1至周5冒号10:00至18:30逗号周6至周7及公众假期10:00至19:00逗号12月25日和1月1日闭馆
周1至周5冒号10:00至18:30逗号周6至周7及公众假期10:00至19:00逗号12月25日和1月1日闭馆
周1至周5冒号10:00至20:00分号周6冒号10:00至14:00分号周7休息
周1至周5冒号10:30至17:00逗号周6至周7冒号10:30至16:00
周1至周5冒号10点至19点周6冒号10点至18点
周1至周5冒号10至18周6冒号09至17
周1至周5冒号11:00至21:00周6冒号11:00至24:00周7冒号10:00至21:00逗号1月10日至2月初不开放
周1至周5冒号11:00逗号14:00
周1至周5冒号11:00逗号14:00逗号15:00分号周6冒号14:00逗号15:00
周1至周5冒号11:30至12:30
周1至周5冒号15:00至18:00逗号周7冒号11:00至14:00
周1至周5冒号9:00至18:00周6逗号日及节假日冒号10:00至18:00
周1至周5冒号9:30至17:30周6冒号9:30至16:00
周1至周5逗号10:00至16:00分号周6至周7逗号12:00至16:00
周1至周610am至6pm周711am至6pm
周1至周6冒号06:00至22:00分号周7和节假日7:00至22:00
周1至周6冒号07:00至21:00逗号周7冒号09:00至21:00
周1至周6冒号08:00至12:00逗号15:00至18:00逗号周7冒号08:00至13:00
周1至周6冒号08:00至12:00逗号17:00至19:30逗号周7冒号08:30至13:30
周1至周6冒号08:30至16:00
周1至周6冒号08:30至19:30逗号周7逗号节假日09:00至18:00
周1至周6冒号08:45至12:30逗号15:30至18:30逗号周7冒号10:00至13:00逗号21:00至22:00
周1至周6冒号09:00至12:00逗号13:00至16:00
周1至周6冒号09:00至12:30逗号13:00至18:00分号周7与节假日12:00至17:45
周1至周6冒号09:00至13:00
周1至周6冒号09:00至17:00分号周7冒号13:00至17:00逗号1月1日逗号5月1日逗号12月25日和公共节假日闭馆
周1至周6冒号09:00至17:00逗号周7冒号08:00至19:30
周1至周6冒号09:00至17:00逗号周7冒号13:00至16:00
周1至周6冒号09:00至17:00逗号周7冒号14:00至17:00分号根据教堂和学院的日程安排时而会关闭
周1至周6冒号09:00至17:00逗号周7及节假日10:00至17:00逗号周2下午逗号圣诞节逗号元旦逗号圣灵降临节休息
周1至周6冒号09:00至17:30逗号周7冒号11:00至17:30
周1至周6冒号09:00至20:00逗号周7及其他公共假期12:00至20:00冬季(10月1日至次年3月31日)晚上闭馆时间19:00宗教仪式时间表:周1至周612点午祷分号周1至周518点晚祷分号周418点晚课分号周618点晚课分号周7和节假日10点早间弥撒(有英语翻译服务)和儿童宗教仪式分号
周1至周6冒号09:00至22:00
周1至周6冒号09:30至17:00
周1至周6冒号09:30至17:00
周1至周6冒号09:30至17:30逗号周7冒号09:30至13:30
周1至周6冒号09:30至18:00逗号周7冒号12:00至16:45逗号12月24日逗号12月25日逗号12月31日和1月1日不开放
周1至周6冒号09:30至19:00逗号周7及假日10:00至14:30(球赛当天或前一天逗号会提前或部分关闭)
周1至周6冒号10:00至12:00逗号14:30至18:00分号周7冒号15:00至17:00
周1至周6冒号10:00至13:00分号14:00至18:00休馆日冒号周7逗号1/1逗号12/8逗号12/25至12/26
周1至周6冒号10:00至17:00周7冒号11:00至15:00
周1至周6冒号10:00至17:00周7冒号11:00至16:00
周1至周6冒号10:00至17:00周7冒号12:00至16:00
周1至周6冒号10:00至17:00周7冒号12:00至17:00
周1至周6冒号10:00至17:00逗号周7冒号11:00至17:00
周1至周6冒号10:00至17:00逗号周7冒号12:00至17:00
周1至周6冒号10:00至17:00逗号周7冒号14:00至17:00
周1至周6冒号10:00至18:00
周1至周6冒号10:00至18:00分号周7冒号13:00至18:00
周1至周6冒号10:00至18:00逗号周7及节假日10:00至17:30
周1至周6冒号10:00至18:30逗号欧洲遗产日和里昂光明节期间周7开放
周1至周6冒号10:00至19:00分号周7冒号10:00至15:00周周2闭馆(节假日除外)
周1至周6冒号10:00至19:00周7冒号11:00至16:00
周1至周6冒号10:00至20:00逗号周7冒号10:00至14:00逗号假日不开放
周1至周6冒号10:00至21:00分号周7冒号10:00至19:00全馆闭馆日冒号周2分号1月1日和6日分号5月1日和15日分号11月9日逗号12月24日逗号25日和31日
周1至周6冒号10:15至18:00
周1至周6冒号10:30至17:00(周2冒号11:00
周1至周6冒号11:00至14:30逗号17:00至20:30
周1至周6冒号11:00至15:00
周1至周6冒号11:00至15:00逗号周7冒号10:00至16:00
周1至周6冒号11:00至17:00分号周7冒号12:30至17:00
周1至周6冒号11:00至18:00逗号周7冒号12:00至17:00
周1至周6冒号11:00至19:00逗号除了周4冒号12:00至22:00逗号周7冒号10:00至18:00
周1至周6冒号16:00至18:00分号周7冒号09:00至13:00逗号16:00至18:00
周1至周6冒号7:00至12:00逗号16:00至19:00周7冒号8:00至13:30逗号16:30至19:00
周1至周6冒号8:00至16:00周7冒号8:00至11:00逗号12:30至16:00教堂有特殊活动时除外
周1至周6冒号9:00至13:00分号15:30至17:30周7冒号9:00至13:00分号18:30至20:00
周1至周6冒号上午10点至下午5点周7冒号上午11点至下午5点除平安夜逗号圣诞节逗号节礼日逗号新年及复活节外逗号全年每日开放
周1至周6逗号10:00至17:00分号周7逗号12:00至17:00
周1至周6逗号10:00至17:00分号周7逗号14:00至17:00
周1至周6逗号10am至5:30pm分号周7逗号11am至5:30pm
周1至周6逗号10am至5pm分号周7逗号11am至5pm
周1至周6逗号11:00至17:00售票窗口接收银行卡支付演出前一个月的第一个工作日开始提供网上购票逗号周7和节假日是16:00至当天演出开始前
周1至周6逗号8:00至14:30
周1至周6逗号9am至12am分号3至6pm
周1至周6逗号9am至5pm分号周7逗号11am至5pm
周1至周7冒号07:00至02:00
周1至周7冒号09:00至21:00
周1至周7冒号09:30至11:30逗号提前半个小时停止售票每月第二逗号第四个周7逗号第一逗号第三个周1和公共节假日闭馆
周1至周7冒号10:00至17:00
周1至周7冒号10:00至20:00密斯凡德罗馆偶尔举办演示和临时展览逗号其内部可能会略有修改偶尔可能会对外关闭逗号5月21日至5月24日展馆将继续封闭周6配有免费语音导览团逗号时长30分钟英文:10:00分号西班牙语:11:00分号加泰罗尼亚语:12:00
周1至周7冒号11:00至16:00
周1逗号6:00至17:00分号周2至周5逗号6:00至18:00分号周6逗号6:00至14:00分号周7休息
周1逗号三逗号四逗号五逗号六12:00至18:00分号周7冒号11:00至18:00分号周2闭馆
周1逗号二逗号四逗号六10:00至17:00逗号周5逗号周7冒号12:00至17:00逗号周3冒号10:00至18:30
周1逗号周2逗号周3逗号周5和周7冒号10:00至17:00分号周4冒号10:00至15:30分号周6冒号10:00至16:45分号每月第一个周6冒号10:00至15:30如遇至祷告日则会推迟至12:30开放普通节假日13:30至16:45逗号12月25日圣诞节逗号1月1日元旦节和4月8日复活节15:30至16:45逗号1月6日关闭登穹顶时间:周1至周5冒号08:30至19:00分号周6冒号08:30至17:40
周1逗号周2逗号周4冒号10:00至20:00逗号周3冒号10:00至19:00逗号周6冒号10:00至18:00逗号周7冒号12:00至13:45逗号15:15至17:45
周1逗号周2逗号周4逗号周5冒号09:00至17:00逗号周3冒号09:00至20:00逗号周7冒号09:00至18:00
周1逗号周2逗号周4逗号周5冒号09:30至16:30逗号周3冒号09:30至19:00逗号周6冒号09:30至14:30
周1逗号周2逗号周4逗号周5冒号10:00至17:00逗号周3冒号10:00至20:00逗号周6逗号周7冒号11:00至17:00
周1逗号周3至周6冒号09:00至18:30分号周2冒号09:30至18:30分号周7冒号11:00至17:00(7月22日至8月12日周7冒号10:30至18:00)
周1逗号周3至周7冒号9:00至19:45周2逗号1月1日逗号5月1日逗号12月25日不开放
周1逗号周3逗号周4和周7冒号10:00至21:00分号周5和周6冒号10:00至24:00
周1逗号周3逗号周5冒号08:00至18:00逗号周4冒号08:00至20:00逗号周6至周7冒号10:00至18:00
周1逗号周5冒号10:00至19:00逗号周2至周4逗号周6冒号08:00至19:00逗号周7冒号07:00至22:15
周1闭馆
周1闭馆周2至周7冒号12:00至17:00周3冒号12:00至19:00
周1闭馆逗号周3周5冒号10:00至21:00点逗号其余几天10:00至18:00
周22至6pm逗号周3至周710am至6pm
周2冒号10:00至20:00逗号周3至周7冒号10:00至18:00
周2冒号10:00至20:00逗号周3至周7冒号10:00至18:00
周2冒号10:00至21:00分号周3至周7冒号10:00至17:00
周2冒号10:00至21:00分号周3至周7冒号10:00至17:00
周2冒号10:00至22:00周3至周7冒号10:00至18:00
周2冒号11:00至20:00逗号周3至周7冒号11:00至17:00
周2冒号11:00至20:00逗号周3至周7冒号11:00至17:00
周2冒号11:00至20:00逗号周3至周7冒号11:00至17:00
周2冒号11:00至20:00逗号周3至周7冒号11:00至17:00
周2冒号12:00至15:00逗号周3冒号13:00至16:00逗号周4冒号11:30至18:00逗号周5冒号13:00至18:00逗号周6冒号14:00至17:00
周2冒号12:00至20:00逗号周3至周5冒号12:00至17:00逗号周6逗号日11:00至17:00休息日冒号新年逗号受难节(4月9日)逗号5月1日逗号仲夏节前夜逗号仲夏节逗号圣诞前夜逗号圣诞节及新年前夜
周2冒号14:00至17:00逗号周6冒号14:00至17:00逗号周7冒号14:00至17:00
周2冒号14:00至18:00逗号周3至周7冒号10:00至18:00逗号周1逗号元旦逗号复活节逗号劳动节和圣诞节闭馆｡
周2冒号15:00至20:00逗号周3至周5冒号09:00至20:00逗号周6和周7冒号09:00至15:00
周2周3及周5冒号10:00至16:00周4冒号10:00至18:00周6周7冒号11:00至16:00
周2周4冒号11:00至18:00分号周3冒号11:00至21:00分号周5至周7冒号11:00至17:00
周2周6周7冒号14:00至16:00
周2周7逗号10:分号00至17:00分号周4逗号10:00至19:00
周2和周4至周7冒号10:00至17:00分号周3冒号10:00至21:00
周2和周4至周7冒号10:00至18:00周3冒号12:00至20:00
周2和周4至周7冒号11:00至18:00分号周3冒号11:00至20:00
周2和周4至周7冒号12:00至18:00逗号周3冒号12:00至21:00
周2至周3逗号周5至周7冒号11:00至17:00逗号周4冒号11:00至18:00
周2至周4冒号08:00至12:00逗号12:30至16:00分号周5冒号08:00至13:00
周2至周4冒号10:00至18:00
周2至周4冒号10:00至21:00逗号周5至周7冒号10:00至17:00
周2至周4和周6冒号10:00至17:00周5和周7冒号11:00至17:00
周2至周4逗号周6至周7冒号11:00至19:00逗号周5冒号11:00至21:00
周2至周510am至6pm
周2至周510点至18点周6逗号周7逗号节假日11点至18点每月第一个周4(家假日除外)10点至22点(很多德国博物馆都是第一个周4开至晚上10点逗号具体参见各博物馆主页)每月第一个周2周310点至16点每月第一个周410点至18点每月第一个周510点至13点
周2至周59.30am至5.00pm周6至周710.00am至5.00pm
周2至周5上午9点至晚上8点周6上午9点至晚上11点周7上午9点至晚上8点周1闭馆最晚进入时间:关闭前1小时观光电梯周2至周5上午10点至晚上8点周6上午10点至晚上11点周7上午10点至晚上8点周1停开最晚进入时间:关闭前1小时
周2至周5冒号02:30pm至6pm周6逗号周711am至5pm
周2至周5冒号07:30至18:00逗号周6冒号09:00至19:00逗号周7冒号09:00至18:00逗号周1冒号14:00至18:00塔楼:10:00至12:00逗号14:00至18:00
周2至周5冒号09:00至15:00逗号周6逗号周7以及节假日10:00至18:30逗号1月1日逗号5月1日逗号12月25日闭馆
周2至周5冒号09:00至16:00分号周7冒号10:00至17:00
周2至周5冒号09:00至17:30逗号周6至周7冒号10:00至18:00周1闭馆
周2至周5冒号09:00至18:00分号周6和周7冒号11:00至19:00
周2至周5冒号09:00至18:00逗号周6和周7冒号10:00至18:00
周2至周5冒号09:30至16:00逗号周6冒号09:30至14:00逗号周7冒号12:00至15:00
周2至周5冒号10:00至14:00分号周6逗号周7及节假日11:00至14:00
周2至周5冒号10:00至14:00逗号18:00至20:00逗号周6至周7冒号10:00至14:00节假日闭馆
周2至周5冒号10:00至17:00分号周6和周7冒号10:00至18:00
周2至周5冒号10:00至17:00分号周6和周7冒号11:00至17:00
周2至周5冒号10:00至17:00周6冒号10:00至16:00
周2至周5冒号10:00至17:00周6周7冒号11:00至17:00
周2至周5冒号10:00至17:00周6至周7冒号12:00至17:00
周2至周5冒号10:00至17:00周7冒号12:00至17:00
周2至周5冒号10:00至17:00周7冒号13:00至17:00
周2至周5冒号10:00至17:00逗号周6至周7冒号10:00至16:00
周2至周5冒号10:00至17:00逗号周6至周7冒号11:00至17:00
周2至周5冒号10:00至17:00逗号周6至周7冒号13:00至17:00逗号1月1日逗号复活节(2012年是在4月8日)逗号4月30日逗号圣灵降临节(whitsunday逗号2012年是在5月27日)逗号12月25日休息分号
周2至周5冒号10:00至18:00分号周6和周7冒号10:00至19:00分号周1和公共假日闭馆
周2至周5冒号10:00至18:00周6周7冒号11:00至19:00
周2至周5冒号10:00至18:00逗号周6周7冒号11:00至18:00
周2至周5冒号10:00至18:00逗号周7及节假11:00至19:00逗号闭馆时间:周1逗号12月24逗号12月25日逗号12月31日及1月1日
周2至周5冒号10:00至20:00逗号周6冒号10:00至19:00
周2至周5冒号11:00至17:00周6至周7冒号13:00至17:00
周2至周5冒号11:00至18:00
周2至周5冒号11:00至20:00周7至周7冒号11:00至18:00
周2至周5冒号11:00至21:00逗号周6冒号11:00至14:0016:00至21:00
周2至周5冒号12:00至19:00分号周6和周7冒号11:00至17:00
周2至周5冒号13:00至18:30周6周7冒号10:00至17:00
周2至周5冒号16:00至22:00分号周6逗号周7和节假日冒号11:00至22:00分号12月24日逗号31日和1月1日逗号6日闭馆
周2至周5冒号9:00至17:00周6至周7冒号12:00至19:00
周2至周5冒号9:30至17:00周6与节假日冒号9:30至18:30周1闭馆
周2至周5及周7冒号11:00至17:00分号周6冒号13:00至17:00分号周1休馆
周2至周5逗号09:00至17:00分号周6逗号周7逗号13:00至17:00
周2至周5逗号09:00至19:00分号周6逗号周7逗号10:00至19:00
周2至周5逗号10:00至18:00分号周6逗号周7逗号11:00至18:00
周2至周5逗号10am至6pm分号周6逗号周7逗号11am至6pm
周2至周5逗号9:00至13:00分号周6和周7逗号10:00至19:00
周2至周5逗号9:00至19:00分号周6和周7逗号10:00至19:00
周2至周610.30am至4pm
周2至周610am至6pm逗号周710am至9pm
周2至周69am至6.30pm周711.30am至6.30pm
周2至周6冒号08:30am至7:30pm分号周71至8pm
周2至周6冒号08:30至17:30分号周7冒号13:00至19:15分号周1关闭
周2至周6冒号09:00至18:00
周2至周6冒号09:30至17:00分号周7冒号09:30至14:30
周2至周6冒号10:00至12:00逗号15:00至17:00分号周7冒号12:00至18:00
周2至周6冒号10:00至14:00
周2至周6冒号10:00至14:00带导游的参观
周2至周6冒号10:00至14:00逗号16:00至20:00分号周7及公共节假日10:00至14:00周1闭馆逗号每年1月1逗号6逗号22日分号5月1日分号12月24逗号25逗号31日皆不开放
周2至周6冒号10:00至17:00
周2至周6冒号10:00至17:00
周2至周6冒号10:00至17:00周7冒号10:00至18:00
周2至周6冒号10:00至17:00逗号周7冒号11:00至17:00
周2至周6冒号10:00至17:00逗号周7冒号11:00至17:00
周2至周6冒号10:00至17:00逗号周7冒号13:00至17:00
周2至周6冒号10:00至19:00周7逗号节假日10:00至14:30
周2至周6冒号10:00至21:00
周2至周6冒号10:30至18:00
周2至周6冒号11:00至17:00逗号周7冒号12:00至17:00
周2至周6冒号8:30至18:00周7冒号8:30至24:30
周2至周6冒号8:30至19:00周7冒号8:30至13:30
周2至周6逗号10:00至13:00分号15:00至17:00分号
周2至周6逗号9:00至17:00
周2至周6逗号9:00至19:00逗号周1关闭其中的艺术图书馆:周2至周5逗号9:00至18:00逗号周6冒号09:00至13:00
周2至周7(包括公共假期):10:00至18:00分号每月的第一个周2冒号10:00至22:00
周2至周710am至12:00逗号2pm至5:30pm
周2至周711am至6:30pm
周2至周79:3o至17:00分号周1休馆
周2至周79点至17点逗号周1闭馆
周2至周7冒号08:15至18:50(提前十五分钟停止售票)分号周1逗号12月25日圣诞节逗号1月1日元旦逗号5月1日劳动节闭馆
周2至周7冒号08:15至18:50分号周1逗号1月1日逗号5月1日和12月25日关闭
周2至周7冒号08:15至19:15逗号周1冒号08:15至14:00逗号1月1日逗号5月1日逗号12月25日闭馆
周2至周7冒号08:30am至7:30pm(最晚进馆6:30pm)分号周1逗号12月25日闭馆
周2至周7冒号08:30至19:15(最后售票时间18:40)分号闭馆时:1月1号逗号5月1号逗号12月25及周1
周2至周7冒号08:30至19:30周1逗号1月1日和12月25日休息
周2至周7冒号09:00至12:00逗号13:00至16:45
周2至周7冒号09:00至12:00逗号14:00至18:00
周2至周7冒号09:00至16:00
周2至周7冒号09:00至16:00
周2至周7冒号09:00至16:30
周2至周7冒号09:00至17:00(16:30最后入场)
周2至周7冒号09:00至17:00分号12月24日逗号12月31日9:00至14:00分号13:00至17:00(1月1日)逗号最后入门闭馆前30分钟12月25日逗号1月11日闭馆
周2至周7冒号09:00至17:00周3冒号10:00至20:00休馆日冒号9至4月周1逗号4月9日(受难日)5月1日逗号6月22逗号23日
周2至周7冒号09:00至19:00
周2至周7冒号09:00至20:00(最后入馆:19:00)休馆日冒号每年1月1日逗号5月1日逗号和12月25日
周2至周7冒号09:00至20:00逗号1月1日和12月25日闭馆
周2至周7冒号09:30至12:00逗号13:00至17:00
周2至周7冒号10:00至12:00逗号14:00至18:00
周2至周7冒号10:00至16:00
周2至周7冒号10:00至16:30
周2至周7冒号10:00至16:30周1冒号12:00至16:30
周2至周7冒号10:00至17:00
周2至周7冒号10:00至17:00
周2至周7冒号10:00至17:00
周2至周7冒号10:00至17:00
周2至周7冒号10:00至17:00
周2至周7冒号10:00至17:00
周2至周7冒号10:00至17:00
周2至周7冒号10:00至17:00
周2至周7冒号10:00至17:00
周2至周7冒号10:00至17:00
周2至周7冒号10:00至17:00分号周1休息
周2至周7冒号10:00至17:00分号周1休息
周2至周7冒号10:00至17:00分号周1闭馆
周2至周7冒号10:00至17:00分号周4冒号10:00至19:00分号周1闭馆
周2至周7冒号10:00至17:00分号每月的第一个周2冒号10:00至22:00
周2至周7冒号10:00至17:00逗号12月24日逗号12月31日10:00至15:00逗号1月1日逗号4月30日逗号5月5日逗号12月25日关闭
周2至周7冒号10:00至17:00逗号1月1日逗号4月30日逗号12月25日不开放
周2至周7冒号10:00至17:00逗号周1闭馆
周2至周7冒号10:00至17:00逗号周3冒号10:00至20:00
周2至周7冒号10:00至17:00逗号周4冒号10:00至20:00
周2至周7冒号10:00至17:30(节假日闭馆)
周2至周7冒号10:00至18:00
周2至周7冒号10:00至18:00
周2至周7冒号10:00至18:00
周2至周7冒号10:00至18:00
周2至周7冒号10:00至18:00
周2至周7冒号10:00至18:00
周2至周7冒号10:00至18:00
周2至周7冒号10:00至18:00
周2至周7冒号10:00至18:00
周2至周7冒号10:00至18:00
周2至周7冒号10:00至18:00
周2至周7冒号10:00至18:00
周2至周7冒号10:00至18:00
周2至周7冒号10:00至18:00
周2至周7冒号10:00至18:00(淡季至17:00)
周2至周7冒号10:00至18:00.其中周3冒号10:00至21:00
周2至周7冒号10:00至18:00分号周2冒号10:00至21:00分号公共假日10:00至18:00
周2至周7冒号10:00至18:00分号售票处17:00停止售票分号逢周1逗号节假日闭馆
周2至周7冒号10:00至18:00周1休息
周2至周7冒号10:00至18:00周4冒号10:00至22:00
周2至周7冒号10:00至18:00周4冒号10:00至22:00
周2至周7冒号10:00至18:00逗号17:15停止售票分号周1闭馆
周2至周7冒号10:00至18:00逗号17:30停止售票分号周1闭馆
周2至周7冒号10:00至18:00逗号17:30后禁止入馆周1逗号复活节逗号劳动节逗号圣诞节及新年的法定假日闭馆
周2至周7冒号10:00至18:00逗号1月1日逗号5月1日逗号11月1日逗号12月25日闭馆
周2至周7冒号10:00至18:00逗号周1逗号节假日休息
周2至周7冒号10:00至18:00逗号周3延长至21:00
周2至周7冒号10:00至18:00逗号周4关门时间延长至21:00(夏季假期除外)逗号周1逗号1月1日和12月25日闭馆
周2至周7冒号10:00至18:00逗号周4延长至22:00逗号周1闭馆
周2至周7冒号10:00至18:00逗号周4延长至22:00逗号周1闭馆票价:8欧元逗号优惠票4欧元
周2至周7冒号10:00至18:00逗号目前关闭
周2至周7冒号10:00至18:30逗号12月25日逗号1月1日逗号5月1日闭馆逗号周1闭馆逗号但是公众假期期间周1也开放
周2至周7冒号10:00至19:00
周2至周7冒号10:00至19:00
周2至周7冒号10:00至19:00
周2至周7冒号10:00至19:00逗号周1及节假日闭馆
周2至周7冒号10:00至20:00
周2至周7冒号10:00至20:00逗号12月24逗号31日冒号10:00至14:00休馆日冒号周1逗号1月1日逗号5月1日逗号12月25日
周2至周7冒号10:00至20:00逗号周1及节假日休息
周2至周7冒号10:00至20:00逗号周1闭馆
周2至周7冒号10:30至12:30分号14:00至17:30(周1休馆)
周2至周7冒号11:00至17:00
周2至周7冒号11:00至17:00
周2至周7冒号11:00至17:00
周2至周7冒号11:00至17:00
周2至周7冒号11:00至17:00逗号周4冒号11:00至20:00
周2至周7冒号11:00至18:00
周2至周7冒号11:00至18:00
周2至周7冒号11:00至18:00艺术周(6/16至6/22):9:00至19:00
周2至周7冒号11:00至18:00逗号1月1日逗号4月30日逗号12月25日休息
周2至周7冒号11:00至19:00
周2至周7冒号11:00至19:00逗号周6冒号11:00至22:00逗号闭馆前一小时停止售票5月1日逗号12月25日及周1闭馆
周2至周7冒号12:00至16:00
周2至周7冒号12:00至17:00圣诞节逗号节礼日逗号耶稣受难节逗号复活节闭馆
周2至周7冒号12:00至17:00逗号周4冒号12:00至20:00
周2至周7冒号12:00至18:00
周2至周7冒号12:00至18:00逗号周4冒号10:00至20:00
周2至周7冒号13:00至17:00
周2至周7冒号13:00至17:00
周2至周7冒号13:00至17:00
周2至周7冒号13:30至18:00(需要预约)
周2至周7冒号14:00至17:30
周2至周7冒号8:30至19:30
周2至周7冒号8:30至19:30特展:10:30至19:30休馆日冒号周1逗号1月1日逗号5月1日逗号12月25日
周2至周7冒号9:00至18:00前一小时分号周1冒号9:00至14:00
周2至周7冒号9:00至18:00逗号周1休息圣诞节和新年关闭
周2至周7冒号9:00至19:00(最后入馆:16:30)
周2至周7冒号9:00至20:00(最后入馆:19:00)休馆日冒号周1逗号12/25逗号1/1逗号5/1
周2至周7及节假日的周1冒号09:00至18:00(17:00停止售票)
周2至周7和公共假期10:00至18:00逗号1月1日逗号1月5日和12月25日闭馆休息
周2至周7和公共节假日10:00至18:00逗号1月1日逗号5月1日逗号11月1日逗号12月24和25日闭馆休息
周2至周7每天10:00至19:00售票处18:30关闭1月1日逗号5月1日逗号12月25日全天关闭
周2至周7逗号10:00至12:00逗号14:00至18:30
周2至周7逗号10:00至17:00
周2至周7逗号10:00至17:00逗号其中周3冒号10:00至20:00
周2至周7逗号10:00至18:00
周2至周7逗号10am至18:00
周2至周7逗号10am至5pm
周2至周7逗号11amto5pm
周2至周7逗号11am至5pm分号周3逗号11am至9pm
周2至周7逗号11am至6pm
周2至周7逗号9:00至19:00
周2至周7逗号9:00至19:00
周2至周7逗号9am至9pm
周2逗号10:00至22:00分号周3至周7逗号10:00至18:00
周2逗号周310am至6pm周4至周710am至9pm
周2逗号周3冒号10:00至18:00周5至周7冒号10:00至21:00
周2逗号周3及周5冒号10:00至17:00逗号周4冒号10:00至20:00逗号周6及周7冒号10:00至18:00逗号7月至9月及圣诞市场期间的周1冒号10:00至17:00
周2逗号周3和周7冒号11:00至19:00分号周4逗号周5和周6冒号11:00至21:00
周2逗号周3逗号周5冒号09:30至17:30逗号周4冒号09:30至20:00逗号周6冒号10:00至16:00复活节逗号圣诞节以及英国银行假日闭馆
周2逗号周3逗号周5冒号10:00至18:00逗号周4冒号10:00至19:00逗号周6逗号周7冒号11:00至17:00
周2逗号周3逗号周5冒号12:00至18:00逗号周4冒号12:00至20:00逗号周6至周7冒号11:00至17:00
周2逗号周3逗号周5和周6逗号10:00至18:30分号周4逗号10:00至22:00分号周7逗号10:00至20:30
周2逗号周3逗号周5至周7冒号10:00至18:00(每月的第一个周6冒号10:00至24:00)分号周4冒号10:00至21:00
周2逗号周3逗号周5逗号周7冒号10:00至18:00逗号周4冒号10:00至20:00逗号周7冒号12:00至8:00
周2逗号周4冒号11:00至18:00逗号周3逗号周5冒号10:00至15:30逗号周6至周7冒号10:30至16:30
周2逗号周4至周710am至6pm周310am至9pm
周2逗号周4至周7冒号10:00至18:00分号周3冒号10:00至21:00
周2逗号周4至周7冒号11:00至18:00分号周3冒号11:00至20:00
周2逗号周4至周7冒号11:00至18:00逗号周3冒号11:00至20:00
周2逗号周4逗号周5冒号09:00至16:00逗号周3冒号11:00至18:00逗号周6至周7冒号10:00至17:00
周2逗号周4逗号周5冒号10:00至17:00周3冒号10:00至19:00周6逗号日11:00至16:00休息日冒号周1逗号节日
周2逗号周4逗号周5和周7冒号10:00至17:00分号周3冒号10:00至20:00分号周6冒号14:00至20:00
周2逗号周4逗号周6和周7冒号10:00至18:00分号周3和周5冒号10:00至21:00
周2逗号周4逗号周7冒号10:00至17:00逗号周3冒号10:00至20:00逗号周1闭馆
周2逗号周5冒号10:00至18:00逗号周3逗号周4冒号10:00至20:00逗号周6逗号周7冒号11:00至17:00
周2逗号周5至周7冒号10:00至17:00逗号周3逗号周4冒号10:00至20:00
周2逗号周5逗号周6冒号13:00至17:00分号1月1日逗号5月1日逗号11月1日逗号11月11日逗号12月25日休息
周2逗号四09:30至12:30分号15:30至19:30周3冒号09:30至12:30周5冒号15:30至19:30周6逗号日09:30至12:30逗号8月休馆
周3冒号10:00至17:00逗号周4至周7冒号10:00至16:00
周3及周5至周7逗号15:00至19:30
周3四11:00至21:00周5冒号11:00至18:00周6日12:00至17:00
周3四12:00至18:00周5至周7冒号12:00至16:00
周3至周1l2:00至17:00(周7从10:00开始)分号周2休馆
周3至周1冒号09:00至17:30
周3至周1冒号10:00至18:00
周3至周1冒号10:00至18:00逗号提前一小时停止入场
周3至周1冒号12:00至17:00周2闭馆
周3至周1冒号14:00至18:00
周3至周1逗号10:00至19:00
周3至周4冒号10:00至17:00每月第一个周7冒号14:00至17:00
周3至周4冒号12:00至17:00周5至周7冒号10:00至17:00
周3至周511am至1.30pm周13至6pm
周3至周5冒号10:00至12:00逗号13:00至16:00需预约
周3至周5冒号10:00至15:00周6冒号11:00至15:00
周3至周5冒号10:00至20:00分号周6逗号周7逗号周2冒号10:00至18:00分号周1闭馆
周3至周5冒号12:00至19:00逗号周6至周7冒号11:00至17:00
周3至周5冒号14:00至17:00逗号周6和周7冒号10:00至17:00
周3至周5冒号14:00至19:00逗号周6至周7冒号11:00至17:00
周3至周7冒号09:00至12:00逗号13:00至17:00
周3至周7冒号09:00至12:00逗号13:00至17:00
周3至周7冒号10:00至16:00
周3至周7冒号10:00至17:00
周3至周7冒号10:00至18:00
周3至周7冒号10:00至18:00逗号节假日逗号5月8日和11月11日闭馆
周3至周7冒号11:00至16:00
周3至周7冒号11:00至17:00
周3至周7冒号11:00至18:00
周3至周7冒号11:00至18:30逗号1月16日13:30至18:30
周3至周7冒号12:00至18:00
周3至周7冒号12:00至19:00
周3至周7冒号9:30至12:00逗号14:00至18:00分号节假日关闭
周3逗号周5逗号周6冒号12:00至16:00逗号周7冒号12:30至16:00
周4冒号02:30至8:30pmtue逗号周3至周6冒号09:30至20:30pmwed至sat逗号周7冒号09:30至14:30
周4冒号11:00至19:00逗号周5至周7冒号11:00至17:00
周4至周2冒号08:30至19:30
周4至周2冒号08:30至19:30逗号闭馆前90分钟停止入馆
周4至周2冒号09:00至12:00分号14:00至18:00
周4至周2冒号09:00至19:00
周4至周2冒号10:00至18:00周3冒号10:00至21:00
周4至周5冒号15:00至19:00逗号周6至周7冒号12:00至16:00
周4至周7冒号10:00至17:00
周4至周7和公共假日9:00至18:00逗号1月1日逗号1月5日逗号12月25日闭馆休息
周4至周7逗号9:00至19:00分号周2和周4逗号9:00至13:30
周5冒号14:00至19:00逗号周6冒号14:00至17:00逗号周7冒号10:00至17:00
周5至下周3冒号09:00至24:00分号周4冒号09:00至14:00分号12月25日闭馆
周5至周310am至6pm逗号周410am至9pm
周5至周3冒号10:00至17:00周4冒号10:00至22:00
周5至周3冒号10:00至18:00逗号周4冒号10:00至22:00
周6冒号09:15至16:30逗号7月27至9月1日(奥运期间) 周1至周6冒号09:15至16:30
周6冒号10:00至22:00逗号周7至周5冒号10:00至20:00
周6冒号14:30至17:30逗号周7冒号14:30至19:00
周6及周7冒号13:00至16:00
周6至周3冒号10:00至18:00逗号周5冒号10:00至21:00
周6至周3冒号11:00至16:00分号周4和周5从11:00至17:00分号5月1日至9月30日闭馆
周6至周3冒号7:00至19:00逗号周4冒号7:00至20:30逗号周5冒号7:00至18:00
周6至周410am至7pm逗号周510am至10pm
周6至周4冒号10:00至17:30周5冒号10:00至20:30
周6至周4冒号10:00至17:50
周6逗号日10:00至15:00分号周1至周5逗号皇室活动日关闭
周7休息逗号周1至五10:00至19:30逗号周6冒号10:00至19:00
周7冒号10:00至14:00逗号4月至9月10:00至18:00逗号10月至5月10:00至17:00
周7冒号11:00
周7冒号12:00至16:00逗号周1冒号12:00至14:00
周7冒号12:15逗号周1冒号17:00参加音乐会凭票入内
周7至周310am至6pm逗号周4至周610am至8pm
周7至周3冒号10:00至18:00逗号周4至周6冒号10:00至20:00
周7至周4冒号09:00至20:00逗号周5至周6冒号09:00至23:00
周7至周4冒号10:00至16:00周5冒号10:00至13:00
周7至周4冒号10:00至18:00逗号周5至周6冒号10:00至22:00
周7逗号周1逗号10:50─17:00逗号周2─周6逗号9:50─17:00
周周1至周7及节假日冒号10:00至20:00周7及节假日冒号10:00至19:00关闭日冒号每年1月1日逗号5月1日和12月25日提前闭馆的开放日10:00至14:00逗号1月6日逗号12月24日和31日
售票时间9:00至17:00逗号参观时间9:00至18:00分号周3闭馆
图书馆:周1至周51​​0:00至15:00
图书馆:周1至周5冒号09:00至12:00逗号13:30至16:30
圣阶:6:15至12:00分号15:30至18:45(冬季提早至15:00)礼拜堂:10:30至11:30分号15:00至16:00(周3逗号周7不开放)
地下室为11:00至14:00逗号其他场所营业时间基本为10:00或11:00至16:00或17:00
城堡冬季7:00至18:00逗号夏季7:00至19:00全部博物馆:周2至周7冒号09:00至17:30(最后入馆17点)闭馆时间:周1逗号25/12逗号01/01逗号01/05逗号复活节
城堡冬季7:00至18:00逗号夏季7:00至19:00分号全部博物馆:周2至周7冒号09:00至17:30(最后入馆17点)闭馆时间:周1逗号25/12逗号01/01逗号01/05逗号复活节
复活节至11月10日逗号10:00am至12:30am分号14:00至17:30pm
复活节至9月10:30至17:00
夏:10:00至16:00冬:10:00至15:00
夏季(4月至10月)9:00至18:00逗号冬季(11月至次年3月)9:00至16:30周6及犹太假日闭馆
夏季10:00至19:00逗号冬季10:00至18:00逗号关闭前半小时停止入内逗号周1关闭
夏季10:00至20:00分号春秋季10:00至18:00分号冬季10:00至16:00分号节假日休息
夏季10:00至20:00逗号冬季10:00至19:00分号圣诞节当日13:00至18:00逗号元旦12:00至18:00分号闭馆前一小时停止入内
夏季10:00至23:00分号住在度假村的游客可以从8:00开始游览
夏季10:45至13:15逗号16:00至19:45分号冬季10:45至13:15逗号16:00至18:45分号周7和举行礼拜仪式的节日逗号早上关闭逗号下午开放参观
夏季5月15日至至9月14日逗号周1至周7冒号11:00至18:00分号冬季9月15日至次年5月14日逗号周1逗号二逗号三逗号五逗号六逗号日11:00至16:00逗号周4冒号11:00至18:00
夏季7:30至19:45冬季8:00至17:30
夏季8:00至17:00逗号冬季9:00至16:00周1不开放
夏季9:00至18:00分号冬季9:00至17:00闭馆前二十分钟禁止登顶
夏季9:00至19:00逗号冬季9:00至17:00
夏季9:00至20:15分号冬季8:30至19:30分号周1关闭
夏季冒号5:00至24:00冬季冒号6:00至23:00
夏季冒号9:00至18:00分号冬季冒号9:00至17:00
夏季冒号9:30至18:00冬季冒号9:30至17:00
夏季冒号周2至周7冒号10:00至17:00冬季冒号周4至周7冒号10:00至17:00
夏季周2至周7冒号10:00至19:00逗号冬季周2至周7冒号10:00至18:00
夏季周7至周4冒号10:00至21:00逗号周5逗号周6冒号10:00至23:00分号冬季周7至周4冒号10:00至19:00逗号周5逗号周6冒号10:00至21:00
夏秋两季开放2013年时间为3月9日至11月11日逗号10:00至18:00逗号平日17:45停止进入逗号周7冒号17:00停止进入
大教堂8:00至19:00逗号小教堂7:00至19:00逗号眺望台5月15日至9月30日6:00至22:00逗号10月1日至5月14日6:00至21:30
大教堂:9:45至17:00分号周7及节假日14:00至16:00夏季至17:00圣马可的博物馆:9:45至16:45回廊/黄金祭坛开放时间:9:45至16:00逗号夏令时至17:00
大教堂开放时间:4月至10月冒号8:30至18:00分号11月至3月冒号8:30至17:00分号神秘羔羊礼拜堂和地下室开放时间:4月至10月冒号9:30至17:00(周7冒号13:00至17:00)分号11月至3月冒号10:30至16:00(周7冒号14:00至17:00)分号周7上午和公共节假日不对外开放
大教堂开放时间:周1至周6冒号06:30至17:00逗号周7冒号08:00至17:00大教堂展览馆开放时间:周1至周6冒号10:00至17:00(5月11日至10月28日逗号12月1日至1月6日)逗号周7或节日11:00至18:00逗号12月24日逗号25日闭馆
大殿开放时间:周2至周6冒号8:30至12:00分号16:00至18:00假期上午9:00至13:00分号16:00至20:00
天文台10:00至17:00
官网预约
宫殿庭院及大酒桶开放时间:8:00至17:30医药博物馆开放时间:4月至10月10:15至18:00分号11月至3月10:00至17:30
宫殿开放时间:2月至4月逗号9月20日至12月19日周1逗号周3逗号周4逗号周5冒号09:30至16:00逗号周7冒号10:30至16:00逗号5月1日至9月19日周1逗号周7冒号09:30至18:00逗号周3冒号09:30至20:00逗号周2逗号周4逗号周5冒号09:30至20:00逗号周7冒号10:30至16:00橘园开放时间:9月20日至4月30日周3至周1冒号10:00至16:30逗号5月1日至9月19日10:00至18:30公园开放时间:9:00至18:00部分节假日除外
导游时间11am逗号1pm逗号3pm逗号5pm
展览"]周2至周5逗号周7冒号12:00至18:30逗号周6冒号11:00至17:00[child=逗号quot分号酒吧周2至周6冒号12:00至24:00逗号周7冒号12:30至18:30
展览日开放
工作日8:00逗号休息日早上9:00开始开放
已经退役逗号不开放对游人(偶尔有openhouseday逗号统一组织参观)
巴斯德博物馆的开放时间为周1至周5的14:00逗号15:00逗号16:00逗号8月和节假日休息
平日9:00至19:00周6逗号周7冒号10:00至19:00周1逗号节假日休息
平日9:00至19:00周6逗号周7冒号10:00至19:00周1逗号节假日休息
平时9:00逗号逗号10:00逗号11:00逗号14:00逗号15:00逗号16:00逗号周7为10:00至15:00
平时上午10:00至下午03:00分号周7上午10:00至下午二点
平时和公共节假日10:00至13:00逗号14:00至18:00逗号1月1日逗号1月5日逗号12月25日逗号复活节和每个周1闭关休息
广场:全天金色大厅:10:00至18:00佩拉赫塔:5月至10月10:00至18:00分号12月周6和周7冒号14:00至19:00
开放时间7:30逗号关闭时间见官网
开放时间:修道院7:00至12:00逗号15:00至19:00分号节假日7:30至12:15分号15:30至21:00"最后的晚餐逗号rdquo分号参观时间:周2至周7冒号08:15至18:45
开放时间:周2至周5冒号10:00至14:00分号周6逗号周7及假日11:00至13:00分号周1(除节假日外)关门
开放时间:周2至周5冒号10:00至17:00分号周7冒号10:00至18:00关闭时间:周1逗号1月1日逗号5月1日和12月25日分号12月24日和31日逗号下午15:00关闭
开放时间:周2逗号14:00至18:00分号周3至周7逗号10:00至18:00
开放时间不固定逗号请参阅
开放时间比较复杂逗号请见其官网
开馆时间:9:00至14:00周7冒号9:00至13:00
开馆时间:9:00至19:00(周7至19:30逗号周1休息)
必须参加旅行团11:00逗号1300逗号15:00逗号17:00
必须在讲解员带领下参观淡季冒号10逗号11逗号12逗号13逗号14逗号15点每个整点旺季冒号9:30至16:00每半小时一次
户外区域全天分号市内周1至周4冒号09:00至16:00逗号周5冒号09:00至14:30逗号周7和节假日9:00至12:00和13:00至16:00
按季节的不同逗号开放时间也会有所不同逗号一般为上午10:30至18:00逗号夏季会延长至晚20:30详见马德里动物园官网www.zoomadrid.com/calendario
换岗时间为周1至周6冒号11:00(周7冒号10:00)逗号卫队检阅仪式为16:00
提前预约
教堂:每天7:00至19:00(最后入门时间18:45)珠宝阁开放时间:周1至周5冒号09:30至17:30逗号周6冒号9:30至17:00分号周7及节假日冒号13:30至15:30庆典关门时间:考古区(areaarcheological):每天9:30至17:30(最后购票时间17:00)博物馆(museodelduomo):目前因装修闭馆登塔时间:每天9:00至21:30(电梯关门20:30楼梯关门18:15逗号圣诞节及五一闭塔)
教堂周1至周5冒号08:00至18:45逗号周6至周7冒号08:00至19:45分号塔楼10月至3月逗号10:00至17:30分号4月至9月9:30至18:30分号4至9月的周5逗号周6及7逗号8月延长开放至23:00逗号提前45分钟停止进入
教堂大殿每日6:00至23:00分号圆顶9:00至18:00
教堂开放时间:9:00至19:00逗号周7和宗教节日时有宗教仪式进行时逗号游客入内请保持安静珍品室逗号后院和古迹开放时间:10:00至19:00逗号关闭时间:周7和宗教节日逗号如果冬季游客量下降有可能缩短开放时间
教堂的开放时间为周1至周6冒号10:00至18:00(17:30停止进入)逗号周7及公共节假日为14:00至18:30(17:30停止进入)分号钟楼的开放时间为周1至周7逗号10:00至13:00逗号16:30至19:00
斗牛场周1关闭逗号而斗牛活动和其他活动日期请参考网站www.torosvalencia.com分号火车北站的开放时间则根据当日的列车车次时间逗号一般为4:30至24:00
无固定开放时间
早上7点至12:00
时间:10:00至16:00每小时一次逗号一般整个参观持续一个半小时逗号有向导带着参观的逗号不像伯纳乌或者诺坎普神马的
暂时闭馆中预计2013年年底重新开放
朱丽叶故居:周2至周7冒号09:00至19:00逗号周1冒号13:30至19:30
根据不同主题这里会不定时举办活动
根据演出时间变动
欧洲遗产开放日那一天
每个交易日的10:00至11:00这里都会向参观者提供免费的演讲逗号之后还允许参观者从游客大厅观望真正的交易层由于每天都有大量游客涌向这里逗号所以你需要至少提前一天进行电话预约逗号并在参观当天带上你的护照
每天10:00至17:00
每天10:00至17:00(周7冒号14:00)
每天10:00至17:00逗号周1及公众假期除外
每天10:00至18:00
每天10:00至18:00
每天10:00至18:00
每天10:00至18:00
每天10:00至18:00
每天10:00至18:00(hsv博物馆)分号导游带领的参观时间为周1至周512点逗号14点和16点逗号周6及周710点半逗号12点逗号14点和16点
每天10:00至18:00(周2冒号10:30)
每天10:00至18:00逗号12月24日和25日闭馆
每天10:00至18:00逗号周3冒号10:00至21:00
每天10:00至18:00逗号周4延长至21:00逗号环幕电影9:00开始
每天10:00至19:00
每天10:00至20:00逗号18:00最后入场逢整点有核战掩体的讲解
每天10:00至20:00逗号周1延长至22:00逗号关门前一小时停止入场(2012年9月17日逗号18日逗号26日逗号和12月24日不开放)
每天14:00和15:00有导览参观逗号周1冒号10:30有加场节假日无导览
每天7:00至13:00
每天9:00至17:00逗号1月1日逗号复活节周7逗号5月1日逗号11月1日逗号12月25日逗号31日闭馆休息
每天9:00至19:00分号导游导览:13:15逗号14:00逗号15:00逗号周1逗号周5逗号周6另有10:15逗号11:00逗号12:00逗号在旧教堂内开始
每天9:00至21:00
每天9:00至21:00
每天9:00至21:00(周3冒号23:00)
每天9:40am至4:30pm
每天教堂开放时间为9:30至19:00分号其他祭祀逗号忏悔逗号弥撒等活动时间逗号请点击http://www.eglise至lamadeleine.com/horaires官网查看
每天早上07:00至下午02:00
每年11月1日至次年2月最后一天9:00至18:00分号3月1日至10月31日9:00至21:00逗号关闭前半小时停止入内奥德修斯塔:10:00至17:00(在天气允许情况下)
每年3月15日至10月15日逗号周2至周6冒号10:00至19:00分号每年10月16日至次年3月14日为10:00至18:00全年所有周7和公共节假日开放时间为10:00至15:00
每日10:00至17:00
每日10:00至17:00逗号12月26日逗号1月1日和1月2日12:00至17:00逗号12月25日关闭
每日10:00至18:00
每日10:00至19:00
每日10:00逗号一般一天会安排2至3次游览团预定请点击官网查询:http://accueil.stadefrance.com/fr/customers/billet/les至visites至du至stade至de至france
每日11:00至19:00开放逗号周2逗号周4闭馆
每日7:00至20:00
每日9:00至16:00
每日9:00至17:00(16:30为最后进馆时间)逗号8月15日闭馆
每日冒号10:00至15:30逗号8月18日冒号9:00至20:00
永久性展览:周2至周7冒号10:00至16:00临时性展览:周2至周3冒号10:00至16:00逗号周4至周5冒号10:00至20:00逗号周6至周7冒号10:00至17:00
游客中心10:30至16:30
游客中心:10:00至16:30
火车:birminghamnewstreet站
玩具博物馆开放时间:10:00至17:30
由于上山缆车直接受天气影响逗号所以这里的开放时间以各年天气温度情况决定这里能够给出的只能是2013年至2014年2月的开放时间逗号所以从9月开始一般缆车半小时一班逗号有可能因为天气原因推迟2013年9月8:30至17:30分号10月1日至10月27日8:30至17:00逗号12月14至2月28日(2014)9:00至16:00逗号2014年10月28至12月13日关闭休整
电梯:9:00至23:45(顶楼22:30)楼梯:9:30至18:30(最晚进入时间18:00)
白天
白天
白天
票务中心周1至周5冒号09:30至17:30分号周6冒号12:00至17:00分号周7关闭
私人所有逗号内部暂不对外开放逗号仅可外部围观
穹顶和天台参观(含语音导览):每天8:00至24:00逗号每15分钟入场逗号最后入场时间23:00逗号12月24日全天逗号12月31日16:00后关闭逗号其余因整修清洁关闭的时间请参考网站国会大厦内部的导游导览及穹顶和天台参观:国家议会闭会期间每天9:00逗号10:30逗号12:00逗号13:30逗号15:30逗号17:00逗号18:30逗号20:00
符腾堡州立博物馆:周2至周7冒号10:00至17:00
美泉宫宫殿(schloßschönbrunn)开放时间:365天全天开放(包括节假日)8:30至17:30参观结束时间四季略有不同逗号7月1日至8月31日于18:30关门逗号11月1日至次年3月31日17:00关门逗号其余时间于17:30关门美泉宫花园(schlosspark)开门时间:6:00(4月1日至10月31日)逗号6:30(11月1日至次年3月31日)分号关闭时间:夏季至21:00逗号冬季至17:30凯旋门观景平台(glorietteaussichtsterrasse)开放时间:9:00至18:00
考古博物馆:周1冒号13:45至19:30逗号周2至周7冒号08:30至19:30
自然历史博物馆开放时间:周3冒号09:00至21:00逗号其他时间9:00至18:30艺术历史博物馆开放时间:周1闭馆逗号其他时间10:00至18:00门票:成人10欧自然历史博物馆电话:43至1至521770艺术历史博物馆电话:43至1至525240
至2012年12月31日期间每天7:00至21:00
至9月30日周1至周610am至5pm周712am至5pm10月1日起周1至周510am至5pm周6日11am至5pm
艺术馆:周1至周5冒号11:00至19:30分号周6冒号10:00至21:00分号周7冒号10:00至15:00分号周2逗号节假日休息图书馆:周1至周4冒号10:00至19:00分号节假日休息
花园08:00至19:00
花园11:00至14:00逗号19:00至21:30
花园:10月至2月周1至周5冒号08:00至18:00逗号周6至周7冒号08:00至17:00假期开放时间同周7温室:9:30至16:00
花园关门时间随当季天黑时间改变大理石厅:周1逗号周3逗号周4冒号08:00至16:00逗号周2逗号周5冒号13:00至16:00有特别活动不开放
花园关门时间随当季天黑时间改变大理石厅:周1逗号周3逗号周4冒号08:00至16:00逗号周2逗号周5冒号13:00至16:00有特别活动不开放
花园开放时间:夏季9:00至19:30分号冬季9:00至16:30进宫殿需分批跟随讲解员逗号英语讲解员只在夏季周6逗号周7及节假日的14点有
英语和挪威语向导团1月1日至6月6日10:00逗号11:30逗号13:00
英语讲解团周1至周4及周6冒号12:00逗号14:00逗号14:20分号周5和周6冒号14:00逗号14:20逗号16:00
讲解团周6冒号12:00逗号周7冒号13:00逗号周3冒号14:00
通常9:00至17:00分号12月24日逗号31日9:00至14:00逗号1月1日13:00至17:00逗号10月第一个周1逗号1月11日逗号12月25日闭馆
钟琴表演(glockenspiel):11:00逗号12:00逗号17:00和21:00
银行假日关门
闭馆至2013年
除12月25日和1月1日外逗号每日开放11月至2月09:00至18:30逗号3月至10月09:00至20:00
除了12月25逗号26日全年开放逗号9:00至17:00逗号7逗号8月9:00至18:00
除周1外每天10:00至18:00周4冒号10:00至21:00
除周2闭馆外逗号每天9点至18点开放逗号卢浮宫周1逗号四逗号六逗号日的开放时间为9:00至18:00逗号但从17:30开始清场每年固定闭馆日冒号1月1日逗号5月1日和12月25日2012年12月24逗号31日冒号9时至17时逗号16时停止售票
除圣诞逗号新年等重要节日外全日开放
随演出时间变动
随演出时间变动
需要提前预约
需要预约
非会议期逗号不对外开放
非会议期间每天9:00至16:15逗号2013年8月每天的英语导游时间为13:00
预约参观预约电话:+43至1至50587471月1日逗号1月5日逗号12月25日闭馆休息
餐厅:周3至周5冒号11:30至14:30酒吧:周3至周6冒号17:00至24:00晚会(日程参见其官网):周5逗号周6营业至3:00分号其他时间营业至24:00
