08:00至21:00
08:30至18:00
08:30至18:00mon至sat
09:00至12:30逗号14:30至17:30
09:00至16:00
09:00至17:00
09:00至17:00may至sep逗号10:00至14:00oct至apr
09:00至18:00
09:00至19:00
10:00至13:0014:00至17:00
10:00至13:00逗号14:00至17:00mon至sat
10:00至13:00逗号16:00至20:00
10:00至13:30逗号15:00至18:30
10:00至14:00逗号16:00至20:00
10:00至16:00
10:00至16:30
10:00至16:45
10:00至17:00
10:00至17:002012.6:25至9:21期间因奥运会原因闭馆
10:00至17:00tue至sun
10:00至17:00可能随天气等条件有所变化
10:00至17:30
10:00至17:50
10:00至18:00
10:00至18:00may至sep
10:00至18:30
10:00至19:00
10:00至20:00
10:00至20:00(5/21至9/20)逗号10:00至17:00(9/21至5/20)
10:00至20:00(主要店铺营业时间)
10:00至23:00
10:00至24:00
10:30至17:30
11:00至15:00
11:00至16:00
11:00至17:00
11:00至17:30
11:00至18:00
11:00至18:00tue至sun
11:00至19:30
11:00至20:00逗号最后入场19:15
11:00至22:00
12.24平安夜
13:30至18:00
14:00至16:30
14:00至17:00
14:00至19:00
2013内部整修不开放逗号可从外部观看
5:00至20:00
5:00至24:00
6:00至12:30分号16:00至19:15
6:00至21:00逗号全年开放逗号园中的城堡现在关闭装修逗号将改成博物馆重新开放
6:00至22:00
7:00至12:00逗号14:00至17:00
7:00至13:00逗号16:00至19:30
7:00至17:00
7:00至18:00
7:00至19:00
7:30至12:30分号15:30至19:30
7:30至14:15
7:30至17:00
7:30至18:00
7:30至18:30
7:30至23:00
7:45至13:15逗号15:00至18:30
7欧元/人分号含导游10欧元
8.:00至12:00逗号16:00至19:00
8:00至12:0015:00至19:00
8:00至12:00分号16:00至19:10
8:00至12:30分号16:00至18:30
8:00至17:00
8:00至19:00
8:00至20:00
8:15至18:00
8:30至17:00
9:00至12:00分号15:00至18:00
9:00至12:00逗号13:00至15:00
9:00至12:00逗号15:00至17:30
9:00至12:00逗号15:00至19:00
9:00至12:00逗号2:00至18:00逗号节假日不开放
9:00至16:30
9:00至17:0
9:00至17:00
9:00至17:00最后入场时间是16点闭馆时间:圣诞逗号新年及少数宗教节日
9:00至17:00逗号最后入场时间是16点闭馆时间:圣诞逗号新年及少数宗教节日
9:00至18:00
9:00至18:00前两小时
9:00至19:00
9:00至19:30
9:00至20:00
9:00至22:00
9:0至17:00
9:30至16:30
9:30至17:00(冬)分号9:30至19:00(夏)
9:30至17:30
9:30至18:00
9:30至19:00
9:30至19:30
9:30至23:30
byappointment
daylight
daylighthrs
tue至sun10:00至17:00逗号10:00至17:00tue至sat
一年只开放几天逗号集体参观可提前预约
一直私人所有逗号暂不向游人开放
一般商铺10:00至20:00
上午9时至晚上8时(不同展览开放时间会有调整)
仅在活动举行期间对受邀人员开放
依据演出时间
全年10:00至17:00
内部暂不对外开放逗号仅可外观
参考时间7:00至19:00
变动较多逗号请参考http://www.skansen.se/en/priser上的每日开放时间
只在活动时开放
只对音乐会开放
可选择搭乘地铁至ruedubac或varenne站下车
地下室为11:00至14:00逗号其他场所营业时间基本为10:00或11:00至16:00或17:00
夏:10:00至16:00冬:10:00至15:00
天文台10:00至17:00
官网预约
展览日开放
工作日8:00逗号休息日早上9:00开始开放
已经退役逗号不开放对游人(偶尔有openhouseday逗号统一组织参观)
开放时间7:30逗号关闭时间见官网
开放时间不固定逗号请参阅
开放时间比较复杂逗号请见其官网
必须参加旅行团11:00逗号1300逗号15:00逗号17:00
提前预约
教堂大殿每日6:00至23:00分号圆顶9:00至18:00
无固定开放时间
早上7点至12:00
时间:10:00至16:00每小时一次逗号一般整个参观持续一个半小时逗号有向导带着参观的逗号不像伯纳乌或者诺坎普神马的
暂时闭馆中预计2013年年底重新开放
根据不同主题这里会不定时举办活动
根据演出时间变动
欧洲遗产开放日那一天
每个交易日的10:00至11:00这里都会向参观者提供免费的演讲逗号之后还允许参观者从游客大厅观望真正的交易层由于每天都有大量游客涌向这里逗号所以你需要至少提前一天进行电话预约逗号并在参观当天带上你的护照
每天10:00至17:00
每天10:00至18:00
每天10:00至19:00
每天10:00至20:00逗号18:00最后入场逢整点有核战掩体的讲解
每天7:00至13:00
每天9:00至21:00
每天早上07:00至下午02:00
每日10:00至17:00
每日10:00至18:00
每日10:00至19:00
每日10:00逗号一般一天会安排2至3次游览团预定请点击官网查询:http://accueil.stadefrance.com/fr/customers/billet/les至visites至du至stade至de至france
每日7:00至20:00
每日9:00至16:00
游客中心10:30至16:30
游客中心:10:00至16:30
玩具博物馆开放时间:10:00至17:30
电梯:9:00至23:45(顶楼22:30)楼梯:9:30至18:30(最晚进入时间18:00)
白天
私人所有逗号内部暂不对外开放逗号仅可外部围观
花园08:00至19:00
花园11:00至14:00逗号19:00至21:30
钟琴表演(glockenspiel):11:00逗号12:00逗号17:00和21:00
银行假日关门
闭馆至2013年
除圣诞逗号新年等重要节日外全日开放
随演出时间变动
需要提前预约
需要预约
非会议期逗号不对外开放
