7:00至18:00逗号夏季延长至20:00
9:00至19:00(冬季至16:00)
9:30至17:30(冬季开放至16:30)
升降机开放时间:冬季7:00至22:00逗号夏季7:00至23:00观景台开放时间:8:30至20:30
夏季10:00至20:00分号春秋季10:00至18:00分号冬季10:00至16:00分号节假日休息
夏季10:00至20:00逗号冬季10:00至19:00分号圣诞节当日13:00至18:00逗号元旦12:00至18:00分号闭馆前一小时停止入内
夏季10:00至23:00分号住在度假村的游客可以从8:00开始游览
夏季7:30至19:45冬季8:00至17:30
夏季9:00至18:00分号冬季9:00至17:00闭馆前二十分钟禁止登顶
夏季9:00至19:00逗号冬季9:00至17:00
夏季冒号5:00至24:00冬季冒号6:00至23:00
夏季冒号9:00至18:00分号冬季冒号9:00至17:00
夏季冒号9:30至18:00冬季冒号9:30至17:00
必须在讲解员带领下参观淡季冒号10逗号11逗号12逗号13逗号14逗号15点每个整点旺季冒号9:30至16:00每半小时一次
按季节的不同逗号开放时间也会有所不同逗号一般为上午10:30至18:00逗号夏季会延长至晚20:30详见马德里动物园官网www.zoomadrid.com/calendario
